"","medcode","read_code","desc"
"1",1638,"J615z13","Cirrhosis of liver NOS"
"2",3450,"J615300","Diffuse nodular cirrhosis"
"3",4743,"J612.00","Alcoholic cirrhosis of liver"
"4",5638,"J616000","Primary biliary cirrhosis"
"5",6015,"Jyu7100","[X]Other and unspecified cirrhosis of liver"
"6",6863,"J61..00","Cirrhosis and chronic liver disease"
"7",8206,"C350012","Pigmentary cirrhosis of liver"
"8",8363,"G852300","Oesophageal varices in alcoholic cirrhosis of the liver"
"9",9494,"J616.00","Biliary cirrhosis"
"10",15424,"J616100","Secondary biliary cirrhosis"
"11",16455,"J615z00","Non-alcoholic cirrhosis NOS"
"12",16725,"J615.00","Cirrhosis - non alcoholic"
"13",18739,"J615z12","Cryptogenic cirrhosis of liver"
"14",19512,"C310400","Glycogenosis with hepatic cirrhosis"
"15",22841,"J615z11","Macronodular cirrhosis of liver"
"16",26319,"G852200","Oesophageal varices in cirrhosis of the liver"
"17",27438,"J615700","Cardiac portal cirrhosis"
"18",40567,"J615600","Capsular portal cirrhosis"
"19",40953,"H55..11","Cirrhosis of lung"
"20",40963,"J61y300","Portal fibrosis without cirrhosis"
"21",44120,"J635600","Toxic liver disease with fibrosis and cirrhosis of liver"
"22",44676,"J615400","Fatty portal cirrhosis"
"23",47257,"J615.11","Portal cirrhosis"
"24",48928,"J615H00","Infectious cirrhosis NOS"
"25",55454,"J615y00","Portal cirrhosis unspecified"
"26",58184,"J615812","Indian childhood cirrhosis"
"27",58630,"J616z00","Biliary cirrhosis NOS"
"28",68376,"J612.11","Florid cirrhosis"
"29",69204,"J615100","Multilobular portal cirrhosis"
"30",73482,"J615D00","Bacterial portal cirrhosis"
"31",91591,"J616200","Biliary cirrhosis of children"
"32",92909,"J615500","Hypertrophic portal cirrhosis"
"33",96664,"J615800","Juvenile portal cirrhosis"
"34",100253,"J615C00","Xanthomatous portal cirrhosis"
"35",100474,"J612.12","Laennec's cirrhosis"
"36",102922,"C370800","Cystic fibrosis related cirrhosis"
"37",108819,"J615711","Congestive cirrhosis"
"38",109540,"J615G00","Zooparasitic portal cirrhosis"
