"","medcode","desc"
"1",2262,"Gastroenterological referral"
"2",2064,"Refer to audiologist"
"3",9908,"Referral to gastroenterologist"
"4",22802,"Referral to memory clinic"
"5",19053,"Slurred speech"
"6",99744,"History of epistaxis"
