\relax 
\providecommand*\caption@xref[2]{\@setref\relax\@undefined{#1}}
\newlabel{fig:1a}{{1a}{1}}
\newlabel{sub@fig:1a}{{a}{1}}
\newlabel{fig:1b}{{1b}{1}}
\newlabel{sub@fig:1b}{{b}{1}}
\newlabel{fig:1b}{{1c}{1}}
\newlabel{sub@fig:1b}{{c}{1}}
\newlabel{fig:1a}{{2a}{2}}
\newlabel{sub@fig:1a}{{a}{2}}
\newlabel{fig:1b}{{2b}{2}}
\newlabel{sub@fig:1b}{{b}{2}}
\newlabel{fig:1b}{{2c}{2}}
\newlabel{sub@fig:1b}{{c}{2}}
\newlabel{fig:1a}{{3a}{3}}
\newlabel{sub@fig:1a}{{a}{3}}
\newlabel{fig:1b}{{3b}{3}}
\newlabel{sub@fig:1b}{{b}{3}}
\newlabel{fig:1b}{{3c}{3}}
\newlabel{sub@fig:1b}{{c}{3}}
\newlabel{fig:1a}{{4a}{4}}
\newlabel{sub@fig:1a}{{a}{4}}
\newlabel{fig:1b}{{4b}{4}}
\newlabel{sub@fig:1b}{{b}{4}}
\newlabel{fig:1b}{{4c}{4}}
\newlabel{sub@fig:1b}{{c}{4}}
\newlabel{fig:1a}{{5a}{5}}
\newlabel{sub@fig:1a}{{a}{5}}
\newlabel{fig:1b}{{5b}{5}}
\newlabel{sub@fig:1b}{{b}{5}}
\newlabel{fig:1b}{{5c}{5}}
\newlabel{sub@fig:1b}{{c}{5}}
\newlabel{fig:1a}{{6a}{6}}
\newlabel{sub@fig:1a}{{a}{6}}
\newlabel{fig:1b}{{6b}{6}}
\newlabel{sub@fig:1b}{{b}{6}}
\newlabel{fig:1b}{{6c}{6}}
\newlabel{sub@fig:1b}{{c}{6}}
\newlabel{fig:1a}{{7a}{7}}
\newlabel{sub@fig:1a}{{a}{7}}
\newlabel{fig:1b}{{7b}{7}}
\newlabel{sub@fig:1b}{{b}{7}}
\newlabel{fig:1b}{{7c}{7}}
\newlabel{sub@fig:1b}{{c}{7}}
\newlabel{fig:1a}{{8a}{8}}
\newlabel{sub@fig:1a}{{a}{8}}
\newlabel{fig:1b}{{8b}{8}}
\newlabel{sub@fig:1b}{{b}{8}}
\newlabel{fig:1b}{{8c}{8}}
\newlabel{sub@fig:1b}{{c}{8}}
\newlabel{fig:1a}{{9a}{9}}
\newlabel{sub@fig:1a}{{a}{9}}
\newlabel{fig:1b}{{9b}{9}}
\newlabel{sub@fig:1b}{{b}{9}}
\newlabel{fig:1b}{{9c}{9}}
\newlabel{sub@fig:1b}{{c}{9}}
\newlabel{fig:1a}{{10a}{10}}
\newlabel{sub@fig:1a}{{a}{10}}
\newlabel{fig:1b}{{10b}{10}}
\newlabel{sub@fig:1b}{{b}{10}}
\newlabel{fig:1b}{{10c}{10}}
\newlabel{sub@fig:1b}{{c}{10}}
\newlabel{fig:1a}{{11a}{11}}
\newlabel{sub@fig:1a}{{a}{11}}
\newlabel{fig:1b}{{11b}{11}}
\newlabel{sub@fig:1b}{{b}{11}}
\newlabel{fig:1b}{{11c}{11}}
\newlabel{sub@fig:1b}{{c}{11}}
\newlabel{fig:1a}{{12a}{12}}
\newlabel{sub@fig:1a}{{a}{12}}
\newlabel{fig:1b}{{12b}{12}}
\newlabel{sub@fig:1b}{{b}{12}}
\newlabel{fig:1b}{{12c}{12}}
\newlabel{sub@fig:1b}{{c}{12}}
\newlabel{fig:1a}{{13a}{13}}
\newlabel{sub@fig:1a}{{a}{13}}
\newlabel{fig:1b}{{13b}{13}}
\newlabel{sub@fig:1b}{{b}{13}}
\newlabel{fig:1b}{{13c}{13}}
\newlabel{sub@fig:1b}{{c}{13}}
\newlabel{fig:1a}{{14a}{14}}
\newlabel{sub@fig:1a}{{a}{14}}
\newlabel{fig:1b}{{14b}{14}}
\newlabel{sub@fig:1b}{{b}{14}}
\newlabel{fig:1b}{{14c}{14}}
\newlabel{sub@fig:1b}{{c}{14}}
\newlabel{fig:1a}{{15a}{15}}
\newlabel{sub@fig:1a}{{a}{15}}
\newlabel{fig:1b}{{15b}{15}}
\newlabel{sub@fig:1b}{{b}{15}}
\newlabel{fig:1b}{{15c}{15}}
\newlabel{sub@fig:1b}{{c}{15}}
\newlabel{fig:1a}{{16a}{16}}
\newlabel{sub@fig:1a}{{a}{16}}
\newlabel{fig:1b}{{16b}{16}}
\newlabel{sub@fig:1b}{{b}{16}}
\newlabel{fig:1b}{{16c}{16}}
\newlabel{sub@fig:1b}{{c}{16}}
\newlabel{fig:1a}{{17a}{17}}
\newlabel{sub@fig:1a}{{a}{17}}
\newlabel{fig:1b}{{17b}{17}}
\newlabel{sub@fig:1b}{{b}{17}}
\newlabel{fig:1b}{{17c}{17}}
\newlabel{sub@fig:1b}{{c}{17}}
\newlabel{fig:1a}{{18a}{18}}
\newlabel{sub@fig:1a}{{a}{18}}
\newlabel{fig:1b}{{18b}{18}}
\newlabel{sub@fig:1b}{{b}{18}}
\newlabel{fig:1b}{{18c}{18}}
\newlabel{sub@fig:1b}{{c}{18}}
\newlabel{fig:1a}{{19a}{19}}
\newlabel{sub@fig:1a}{{a}{19}}
\newlabel{fig:1b}{{19b}{19}}
\newlabel{sub@fig:1b}{{b}{19}}
\newlabel{fig:1b}{{19c}{19}}
\newlabel{sub@fig:1b}{{c}{19}}
\newlabel{fig:1a}{{20a}{20}}
\newlabel{sub@fig:1a}{{a}{20}}
\newlabel{fig:1b}{{20b}{20}}
\newlabel{sub@fig:1b}{{b}{20}}
\newlabel{fig:1b}{{20c}{20}}
\newlabel{sub@fig:1b}{{c}{20}}
\newlabel{fig:1a}{{21a}{21}}
\newlabel{sub@fig:1a}{{a}{21}}
\newlabel{fig:1b}{{21b}{21}}
\newlabel{sub@fig:1b}{{b}{21}}
\newlabel{fig:1b}{{21c}{21}}
\newlabel{sub@fig:1b}{{c}{21}}
\newlabel{fig:1a}{{22a}{22}}
\newlabel{sub@fig:1a}{{a}{22}}
\newlabel{fig:1b}{{22b}{22}}
\newlabel{sub@fig:1b}{{b}{22}}
\newlabel{fig:1b}{{22c}{22}}
\newlabel{sub@fig:1b}{{c}{22}}
\newlabel{fig:1a}{{23a}{23}}
\newlabel{sub@fig:1a}{{a}{23}}
\newlabel{fig:1b}{{23b}{23}}
\newlabel{sub@fig:1b}{{b}{23}}
\newlabel{fig:1b}{{23c}{23}}
\newlabel{sub@fig:1b}{{c}{23}}
\newlabel{fig:1a}{{24a}{24}}
\newlabel{sub@fig:1a}{{a}{24}}
\newlabel{fig:1b}{{24b}{24}}
\newlabel{sub@fig:1b}{{b}{24}}
\newlabel{fig:1b}{{24c}{24}}
\newlabel{sub@fig:1b}{{c}{24}}
\newlabel{fig:1a}{{25a}{25}}
\newlabel{sub@fig:1a}{{a}{25}}
\newlabel{fig:1b}{{25b}{25}}
\newlabel{sub@fig:1b}{{b}{25}}
\newlabel{fig:1b}{{25c}{25}}
\newlabel{sub@fig:1b}{{c}{25}}
\newlabel{fig:1a}{{26a}{26}}
\newlabel{sub@fig:1a}{{a}{26}}
\newlabel{fig:1b}{{26b}{26}}
\newlabel{sub@fig:1b}{{b}{26}}
\newlabel{fig:1b}{{26c}{26}}
\newlabel{sub@fig:1b}{{c}{26}}
\newlabel{fig:1a}{{27a}{27}}
\newlabel{sub@fig:1a}{{a}{27}}
\newlabel{fig:1b}{{27b}{27}}
\newlabel{sub@fig:1b}{{b}{27}}
\newlabel{fig:1b}{{27c}{27}}
\newlabel{sub@fig:1b}{{c}{27}}
\newlabel{fig:1a}{{28a}{28}}
\newlabel{sub@fig:1a}{{a}{28}}
\newlabel{fig:1b}{{28b}{28}}
\newlabel{sub@fig:1b}{{b}{28}}
\newlabel{fig:1b}{{28c}{28}}
\newlabel{sub@fig:1b}{{c}{28}}
\newlabel{fig:1a}{{29a}{29}}
\newlabel{sub@fig:1a}{{a}{29}}
\newlabel{fig:1b}{{29b}{29}}
\newlabel{sub@fig:1b}{{b}{29}}
\newlabel{fig:1b}{{29c}{29}}
\newlabel{sub@fig:1b}{{c}{29}}
\newlabel{fig:1a}{{30a}{30}}
\newlabel{sub@fig:1a}{{a}{30}}
\newlabel{fig:1b}{{30b}{30}}
\newlabel{sub@fig:1b}{{b}{30}}
\newlabel{fig:1b}{{30c}{30}}
\newlabel{sub@fig:1b}{{c}{30}}
\newlabel{fig:1a}{{31a}{31}}
\newlabel{sub@fig:1a}{{a}{31}}
\newlabel{fig:1b}{{31b}{31}}
\newlabel{sub@fig:1b}{{b}{31}}
\newlabel{fig:1b}{{31c}{31}}
\newlabel{sub@fig:1b}{{c}{31}}
\newlabel{fig:1a}{{32a}{32}}
\newlabel{sub@fig:1a}{{a}{32}}
\newlabel{fig:1b}{{32b}{32}}
\newlabel{sub@fig:1b}{{b}{32}}
\newlabel{fig:1b}{{32c}{32}}
\newlabel{sub@fig:1b}{{c}{32}}
\newlabel{fig:1a}{{33a}{33}}
\newlabel{sub@fig:1a}{{a}{33}}
\newlabel{fig:1b}{{33b}{33}}
\newlabel{sub@fig:1b}{{b}{33}}
\newlabel{fig:1b}{{33c}{33}}
\newlabel{sub@fig:1b}{{c}{33}}
\newlabel{fig:1a}{{34a}{34}}
\newlabel{sub@fig:1a}{{a}{34}}
\newlabel{fig:1b}{{34b}{34}}
\newlabel{sub@fig:1b}{{b}{34}}
\newlabel{fig:1b}{{34c}{34}}
\newlabel{sub@fig:1b}{{c}{34}}
