"","enttype","description","filetype","category","data_fields","data1_desc","data1_lkup","data2_desc","data2_lkup","data3_desc","data3_lkup","data4_desc","data4_lkup","data5_desc","data5_lkup","data6_desc","data6_lkup","data7_desc","data7_lkup","data8_desc","data8_lkup"
"1",1,"Blood pressure","Clinical","Examination Findings",7,"Diastolic",NA,"Systolic ",NA,"Korotkoff",NA,"Event Time",NA,"Laterality","LAT","Posture","POS","Cuff","CUF",NA,NA
"2",2,"Medical History","Clinical","Medical History",0,NA,NA,NA,NA,NA,NA,NA,NA,NA,NA,NA,NA,NA,NA,NA,NA
"3",3,"Cervical cytology","Clinical","Other Pathology Tests",6,"Inflammation category","Medical Dictionary","In Practice","INP","Date Smear Reported","dd/mm/yyyy","Excluded","Y_N","Reason for exclusion","CYX","Adequate?","Y_N",NA,NA,NA,NA
"4",4,"Smoking","Clinical","Lifestyle",6,"Status","YND","Cigarettes per day ",NA,"Cigars per day ",NA,"Ounces of tobacco ",NA,"Start Date","dd/mm/yyyy","Stop Date","dd/mm/yyyy",NA,NA,NA,NA
"5",5,"Alcohol","Clinical","Lifestyle",4,"Status","YND","Units per week ",NA,"Start Date","dd/mm/yyyy","Stop Date","dd/mm/yyyy",NA,NA,NA,NA,NA,NA,NA,NA
"6",6,"Health promotion - Smoking","Clinical","HP Interventions",0,NA,NA,NA,NA,NA,NA,NA,NA,NA,NA,NA,NA,NA,NA,NA,NA
"7",7,"Health promotion - Alcohol","Clinical","HP Interventions",0,NA,NA,NA,NA,NA,NA,NA,NA,NA,NA,NA,NA,NA,NA,NA,NA
"8",8,"Health promotion - Hypertension","Clinical","HP Interventions",0,NA,NA,NA,NA,NA,NA,NA,NA,NA,NA,NA,NA,NA,NA,NA,NA
"9",9,"Health promotion - Overweight","Clinical","HP Interventions",0,NA,NA,NA,NA,NA,NA,NA,NA,NA,NA,NA,NA,NA,NA,NA,NA
"10",10,"Health promotion - CHD","Clinical","HP Interventions",0,NA,NA,NA,NA,NA,NA,NA,NA,NA,NA,NA,NA,NA,NA,NA,NA
"11",11,"Health promotion - Stroke / TIA","Clinical","HP Interventions",0,NA,NA,NA,NA,NA,NA,NA,NA,NA,NA,NA,NA,NA,NA,NA,NA
"12",12,"Health promotion - FH of CVA / IHD","Clinical","HP Interventions",0,NA,NA,NA,NA,NA,NA,NA,NA,NA,NA,NA,NA,NA,NA,NA,NA
"13",13,"Weight","Clinical","Examination Findings",3,"Weight in kilos",NA,"Weight centile","CEN","BMI ",NA,NA,NA,NA,NA,NA,NA,NA,NA,NA,NA
"14",14,"Height","Clinical","Examination Findings",2,"Height in metres",NA,"Height centile","CEN",NA,NA,NA,NA,NA,NA,NA,NA,NA,NA,NA,NA
"15",15,"Hypertension register","Clinical","Disease Registers",0,NA,NA,NA,NA,NA,NA,NA,NA,NA,NA,NA,NA,NA,NA,NA,NA
"16",16,"Coronary heart disease register","Clinical","Disease Registers",0,NA,NA,NA,NA,NA,NA,NA,NA,NA,NA,NA,NA,NA,NA,NA,NA
"17",17,"Stroke TIA register","Clinical","Disease Registers",0,NA,NA,NA,NA,NA,NA,NA,NA,NA,NA,NA,NA,NA,NA,NA,NA
"18",18,"Diabetic register","Clinical","Disease Registers",0,NA,NA,NA,NA,NA,NA,NA,NA,NA,NA,NA,NA,NA,NA,NA,NA
"19",19,"Asthma register","Clinical","Disease Registers",0,NA,NA,NA,NA,NA,NA,NA,NA,NA,NA,NA,NA,NA,NA,NA,NA
"20",20,"Contraception","Clinical","Lifestyle",4,"Contraception service type","CTT","New claim expiry date","dd/mm/yyyy","Date IUCD fitted","dd/mm/yyyy","Last claim expiry date","dd/mm/yyyy",NA,NA,NA,NA,NA,NA,NA,NA
"21",21,"Allergy and intolerance","Clinical","Allergy & Intolerance",5,"Drug Code","Product Dictionary","Reaction Type","RCT","Severity","SEV","Certainty","CER","Read Code For Reaction","Medical Dictionary",NA,NA,NA,NA,NA,NA
"22",22,"Diabetes annual check","Clinical","Diabetes",2,"Program type","HPS","Check Up Type","TYP",NA,NA,NA,NA,NA,NA,NA,NA,NA,NA,NA,NA
"23",23,"Advice given","Clinical","Lifestyle",2,"Format of advice","ADV","Type of advice","ADT",NA,NA,NA,NA,NA,NA,NA,NA,NA,NA,NA,NA
"24",24,"CHS Behaviour","Clinical","Child Health Surveillance",1,"Behaviour","PHR",NA,NA,NA,NA,NA,NA,NA,NA,NA,NA,NA,NA,NA,NA
"25",25,"Current Asthma status","Clinical","Asthma",1,"Current Asthma Status","CST",NA,NA,NA,NA,NA,NA,NA,NA,NA,NA,NA,NA,NA,NA
"26",26,"Current Diabetes status","Clinical","Diabetes",1,"Diabetes Status","DBS",NA,NA,NA,NA,NA,NA,NA,NA,NA,NA,NA,NA,NA,NA
"27",27,"Asthma diagnosis","Clinical","Asthma",1,"Asthma Diagnosis","DAS",NA,NA,NA,NA,NA,NA,NA,NA,NA,NA,NA,NA,NA,NA
"28",28,"Epilepsy managed by","Clinical","Epilepsy",1,"Managed by","EPM",NA,NA,NA,NA,NA,NA,NA,NA,NA,NA,NA,NA,NA,NA
"29",29,"Diet","Clinical","Lifestyle",2,"Eating habits","GMP","Type of diet","DIE",NA,NA,NA,NA,NA,NA,NA,NA,NA,NA,NA,NA
"30",30,"Exercise","Clinical","Lifestyle",1,"Type of Exercise","EXE",NA,NA,NA,NA,NA,NA,NA,NA,NA,NA,NA,NA,NA,NA
"31",31,"Feeding (child)","Clinical","Child Health Surveillance",1,"Child Appetite ","PHR",NA,NA,NA,NA,NA,NA,NA,NA,NA,NA,NA,NA,NA,NA
"32",32,"Feeding (maternity)","Clinical","Maternity",1,"Type of feeding","LAC",NA,NA,NA,NA,NA,NA,NA,NA,NA,NA,NA,NA,NA,NA
"33",33,"Fundoscopy","Clinical","Examination Findings",2,"Result","N_A","Laterality","LAT",NA,NA,NA,NA,NA,NA,NA,NA,NA,NA,NA,NA
"34",34,"CHS genitalia","Clinical","Child Health Surveillance",1,"Genitalia ","PHR",NA,NA,NA,NA,NA,NA,NA,NA,NA,NA,NA,NA,NA,NA
"35",35,"Hearing (6 weeks)","Clinical","Child Health Surveillance",1,"Hearing state ","PHR",NA,NA,NA,NA,NA,NA,NA,NA,NA,NA,NA,NA,NA,NA
"36",36,"Hearing (over 6 weeks)","Clinical","Child Health Surveillance",2,"Left Ear ","PHR","Right Ear","PHR",NA,NA,NA,NA,NA,NA,NA,NA,NA,NA,NA,NA
"37",37,"Hearing (over 75 years)","Clinical","Elderly",1,"Hearing state ","PHR",NA,NA,NA,NA,NA,NA,NA,NA,NA,NA,NA,NA,NA,NA
"38",38,"Inhaler ability","Clinical","Asthma",1,"Inhaler ability","GMP",NA,NA,NA,NA,NA,NA,NA,NA,NA,NA,NA,NA,NA,NA
"39",39,"CHS locomotion 18 months","Clinical","Child Health Surveillance",1,"Locomotion ","PHR",NA,NA,NA,NA,NA,NA,NA,NA,NA,NA,NA,NA,NA,NA
"40",40,"CHS language 3 years","Clinical","Child Health Surveillance",1,"Language ","PHR",NA,NA,NA,NA,NA,NA,NA,NA,NA,NA,NA,NA,NA,NA
"41",41,"CHS manipulation","Clinical","Child Health Surveillance",1,"Manipulation ","PHR",NA,NA,NA,NA,NA,NA,NA,NA,NA,NA,NA,NA,NA,NA
"42",42,"Elderly mental cognitive state","Clinical","Elderly",1,"Mental cognitive state ","PHR",NA,NA,NA,NA,NA,NA,NA,NA,NA,NA,NA,NA,NA,NA
"43",43,"Elderly mental emotional state","Clinical","Elderly",1,"Mental emotional state ","PHR",NA,NA,NA,NA,NA,NA,NA,NA,NA,NA,NA,NA,NA,NA
"44",44,"Elderly mobility level","Clinical","Elderly",1,"Mobility Level","MOB",NA,NA,NA,NA,NA,NA,NA,NA,NA,NA,NA,NA,NA,NA
"45",45,"Night cough","Clinical","Asthma",1,"Night Cough","NCO",NA,NA,NA,NA,NA,NA,NA,NA,NA,NA,NA,NA,NA,NA
"46",46,"Parental consent","Clinical","Miscellaneous",1,"Type of consent","COS",NA,NA,NA,NA,NA,NA,NA,NA,NA,NA,NA,NA,NA,NA
"47",47,"Peripheral oedema","Clinical","Examination Findings",3,"Peripheral Oedema","P_A","Site of Oedema","LEG","Laterality","LAT",NA,NA,NA,NA,NA,NA,NA,NA,NA,NA
"48",48,"Physical health","Clinical","Elderly",1,"State of Physical Health ","PHR",NA,NA,NA,NA,NA,NA,NA,NA,NA,NA,NA,NA,NA,NA
"49",49,"Referred to (elderly)","Clinical","Elderly",1,"Type of referral","REF",NA,NA,NA,NA,NA,NA,NA,NA,NA,NA,NA,NA,NA,NA
"50",50,"Treatment Compliance","Clinical","Lifestyle",1,"Assessment","GMP",NA,NA,NA,NA,NA,NA,NA,NA,NA,NA,NA,NA,NA,NA
"51",51,"Asthma risk factors","Clinical","Asthma",1,"Asthma risk factor","AAR",NA,NA,NA,NA,NA,NA,NA,NA,NA,NA,NA,NA,NA,NA
"52",52,"Sleep pattern","Clinical","Lifestyle",2,"Sleep pattern ","PHR","Average Hours ",NA,NA,NA,NA,NA,NA,NA,NA,NA,NA,NA,NA,NA
"53",53,"CHS speech 3 years","Clinical","Child Health Surveillance",1,"Speech ","PHR",NA,NA,NA,NA,NA,NA,NA,NA,NA,NA,NA,NA,NA,NA
"54",54,"Speech and language","Clinical","Child Health Surveillance",1,"Speech and language state ","PHR",NA,NA,NA,NA,NA,NA,NA,NA,NA,NA,NA,NA,NA,NA
"55",55,"Time off in the last three months","Clinical","Asthma",1,"Time off in last 3 months","TOF",NA,NA,NA,NA,NA,NA,NA,NA,NA,NA,NA,NA,NA,NA
"56",56,"Vision in the elderly","Clinical","Elderly",2,"Level of vision ","PHR","Visual Aid","GLA",NA,NA,NA,NA,NA,NA,NA,NA,NA,NA,NA,NA
"57",57,"Angina","Clinical","CV / Hypertension",1,"Angina state","Y_N",NA,NA,NA,NA,NA,NA,NA,NA,NA,NA,NA,NA,NA,NA
"58",58,"Immunisation contraindicated","Clinical","Immunisations",1,"Contraindicated?","Y_N",NA,NA,NA,NA,NA,NA,NA,NA,NA,NA,NA,NA,NA,NA
"59",59,"Ankle neuropathy","Clinical","Diabetes",4,"Left jerk","PRE","Right jerk","PRE","Left ankle vibration sense","PRE","Right ankle vibration sense","PRE",NA,NA,NA,NA,NA,NA,NA,NA
"60",60,"Ante-natal booking","Clinical","Maternity",3,"Weeks gestation ",NA,"Unit of measure","SUM","Type of booking","MBO",NA,NA,NA,NA,NA,NA,NA,NA,NA,NA
"61",61,"Ante-natal consultation","Clinical","Maternity",1,"Weeks",NA,NA,NA,NA,NA,NA,NA,NA,NA,NA,NA,NA,NA,NA,NA
"62",62,"Asthma consultation","Clinical","Asthma",1,"Seen by",NA,NA,NA,NA,NA,NA,NA,NA,NA,NA,NA,NA,NA,NA,NA
"63",63,"CHS Examination","Clinical","Child Health Surveillance",2,"Seen by",NA,"Stage of CHS","CHS",NA,NA,NA,NA,NA,NA,NA,NA,NA,NA,NA,NA
"64",64,"CV / BP consultation","Clinical","CV / Hypertension",1,"Seen by",NA,NA,NA,NA,NA,NA,NA,NA,NA,NA,NA,NA,NA,NA,NA
"65",65,"Diabetic consultation","Clinical","Diabetes",1,"Seen by",NA,NA,NA,NA,NA,NA,NA,NA,NA,NA,NA,NA,NA,NA,NA
"66",66,"HRT consultation","Clinical","Miscellaneous",1,"Seen by",NA,NA,NA,NA,NA,NA,NA,NA,NA,NA,NA,NA,NA,NA,NA
"67",67,"New registration consultation","Clinical","Miscellaneous",1,"Seen by",NA,NA,NA,NA,NA,NA,NA,NA,NA,NA,NA,NA,NA,NA,NA
"68",68,"Over 75 years check","Clinical","Elderly",2,"Check location","LOC","Seen by",NA,NA,NA,NA,NA,NA,NA,NA,NA,NA,NA,NA,NA
"69",69,"Post-natal examination","Clinical","Maternity",2,"Seen by",NA,"Weeks post-natal ",NA,NA,NA,NA,NA,NA,NA,NA,NA,NA,NA,NA,NA
"70",70,"Well person consultation","Clinical","Miscellaneous",1,"Seen by",NA,NA,NA,NA,NA,NA,NA,NA,NA,NA,NA,NA,NA,NA,NA
"71",71,"Blood group","Clinical","Haematology",1,"Blood group","ABO",NA,NA,NA,NA,NA,NA,NA,NA,NA,NA,NA,NA,NA,NA
"72",72,"Head circumference centile","Clinical","Child Health Surveillance",3,"Head size value ",NA,"Unit of measure","SUM","Centile","CEN",NA,NA,NA,NA,NA,NA,NA,NA,NA,NA
"73",73,"Heart sounds/femoral pulses","Clinical","Child Health Surveillance",3,"Heart sounds","PHR","Left femoral pulse","PHR","Right femoral pulse","PHR",NA,NA,NA,NA,NA,NA,NA,NA,NA,NA
"74",74,"CHS Hernia ","Clinical","Child Health Surveillance",3,"Left Inguinal ","PHR","Right Inguinal","PHR","Umbilical Hernia","PHR",NA,NA,NA,NA,NA,NA,NA,NA,NA,NA
"75",75,"Hips (CHS)","Clinical","Child Health Surveillance",2,"Left hip ","PHR","Right hip","PHR",NA,NA,NA,NA,NA,NA,NA,NA,NA,NA,NA,NA
"76",76,"CHS Mother and Baby","Clinical","Child Health Surveillance",3,"Feeding","LAC","Sleeping","PHR","Mother's health","PHR",NA,NA,NA,NA,NA,NA,NA,NA,NA,NA
"77",77,"Parity status","Clinical","Maternity",2,"Number of births ",NA,"Number of miscarriages ",NA,NA,NA,NA,NA,NA,NA,NA,NA,NA,NA,NA,NA
"78",78,"Stages of labour","Clinical","Maternity",6,"1st Stage ",NA,"1st Stage Unit","SUM","2nd Stage ",NA,"2nd Stage Unit","SUM","3rd Stage ",NA,"3rd Stage Unit","SUM",NA,NA,NA,NA
"79",79,"CHS squint","Clinical","Child Health Surveillance",2,"Left eye ","PHR","Right eye","PHR",NA,NA,NA,NA,NA,NA,NA,NA,NA,NA,NA,NA
"80",80,"Muscle tone for 6 weeks (CHS)","Clinical","Child Health Surveillance",2,"Muscle Tone ","PHR","Head Control","PHR",NA,NA,NA,NA,NA,NA,NA,NA,NA,NA,NA,NA
"81",81,"Muscle tone for 8 months (CHS)","Clinical","Child Health Surveillance",2,"Sitting Balance ","PHR","Locomotion","PHR",NA,NA,NA,NA,NA,NA,NA,NA,NA,NA,NA,NA
"82",82,"Vision CHS 3 years and 41/2 years","Clinical","Child Health Surveillance",2,"Left visual acuity ","PHR","Right visual acuity","PHR",NA,NA,NA,NA,NA,NA,NA,NA,NA,NA,NA,NA
"83",83,"Vision CHS 8 and 18 months","Clinical","Child Health Surveillance",2,"Left visual acuity","PHR","Right visual acuity","PHR",NA,NA,NA,NA,NA,NA,NA,NA,NA,NA,NA,NA
"84",84,"Vision CHS 6 weeks","Clinical","Child Health Surveillance",4,"Fix vision","PHR","Red reflex left vision","PHR","Red Reflex right vision","PHR","Follows vision","PHR",NA,NA,NA,NA,NA,NA,NA,NA
"85",85,"Absence of Condition","Clinical","Medical History",1,"Read Code For Condition","Medical Dictionary",NA,NA,NA,NA,NA,NA,NA,NA,NA,NA,NA,NA,NA,NA
"86",86,"Fit details","Clinical","Epilepsy",4,"Fit Frequency","FIT","Sleep state","ASL","Fit Aura","Y_N","Numeric result",NA,NA,NA,NA,NA,NA,NA,NA,NA
"87",87,"Family History","Clinical","Medical History",1,"Read Code For Condition","Medical Dictionary",NA,NA,NA,NA,NA,NA,NA,NA,NA,NA,NA,NA,NA,NA
"88",88,"Ante-natal symptoms","Clinical","Maternity",0,NA,NA,NA,NA,NA,NA,NA,NA,NA,NA,NA,NA,NA,NA,NA,NA
"89",89,"Carers - elderly","Clinical","Elderly",0,NA,NA,NA,NA,NA,NA,NA,NA,NA,NA,NA,NA,NA,NA,NA,NA
"90",90,"Check next examination - CHS","Clinical","Child Health Surveillance",0,NA,NA,NA,NA,NA,NA,NA,NA,NA,NA,NA,NA,NA,NA,NA,NA
"91",91,"Diabetes concerns","Clinical","Diabetes",0,NA,NA,NA,NA,NA,NA,NA,NA,NA,NA,NA,NA,NA,NA,NA,NA
"92",92,"Well person concerns","Clinical","Miscellaneous",0,NA,NA,NA,NA,NA,NA,NA,NA,NA,NA,NA,NA,NA,NA,NA,NA
"93",93,"Delivery details","Clinical","Maternity",0,NA,NA,NA,NA,NA,NA,NA,NA,NA,NA,NA,NA,NA,NA,NA,NA
"94",94,"Last fit","Clinical","Epilepsy",0,NA,NA,NA,NA,NA,NA,NA,NA,NA,NA,NA,NA,NA,NA,NA,NA
"95",95,"Foot care","Clinical","Examination Findings",0,NA,NA,NA,NA,NA,NA,NA,NA,NA,NA,NA,NA,NA,NA,NA,NA
"96",96,"Heart examination","Clinical","Examination Findings",3,"Rhythm","N_A","Size/Failure","N_A","Sounds","N_A",NA,NA,NA,NA,NA,NA,NA,NA,NA,NA
"97",97,"Insulin dosage","Clinical","Diabetes",0,NA,NA,NA,NA,NA,NA,NA,NA,NA,NA,NA,NA,NA,NA,NA,NA
"98",98,"Next of kin - elderly","Clinical","Elderly",1,"Next of Kin","KIN",NA,NA,NA,NA,NA,NA,NA,NA,NA,NA,NA,NA,NA,NA
"99",99,"Optician last seen","Clinical","Elderly",0,NA,NA,NA,NA,NA,NA,NA,NA,NA,NA,NA,NA,NA,NA,NA,NA
"100",100,"Perinatal problems","Clinical","Child Health Surveillance",0,NA,NA,NA,NA,NA,NA,NA,NA,NA,NA,NA,NA,NA,NA,NA,NA
"101",101,"Physical examination - CHS","Clinical","Child Health Surveillance",0,NA,NA,NA,NA,NA,NA,NA,NA,NA,NA,NA,NA,NA,NA,NA,NA
"102",102,"Post-natal symptoms","Clinical","Maternity",0,NA,NA,NA,NA,NA,NA,NA,NA,NA,NA,NA,NA,NA,NA,NA,NA
"103",103,"Previous occupation - elderly","Clinical","Elderly",0,NA,NA,NA,NA,NA,NA,NA,NA,NA,NA,NA,NA,NA,NA,NA,NA
"104",104,"Ante-natal risk factors","Clinical","Maternity",0,NA,NA,NA,NA,NA,NA,NA,NA,NA,NA,NA,NA,NA,NA,NA,NA
"105",105,"Ante-natal social factors","Clinical","Maternity",0,NA,NA,NA,NA,NA,NA,NA,NA,NA,NA,NA,NA,NA,NA,NA,NA
"106",106,"Breast examination (maternity)","Clinical","Maternity",0,NA,NA,NA,NA,NA,NA,NA,NA,NA,NA,NA,NA,NA,NA,NA,NA
"107",107,"Pelvic examination (maternity)","Clinical","Maternity",0,NA,NA,NA,NA,NA,NA,NA,NA,NA,NA,NA,NA,NA,NA,NA,NA
"108",108,"Over the counter drug use","Clinical","Elderly",1,"Self medication","Y_N",NA,NA,NA,NA,NA,NA,NA,NA,NA,NA,NA,NA,NA,NA
"109",109,"Risk factors - elderly","Clinical","Elderly",1,"Risk factor present ","Y_N",NA,NA,NA,NA,NA,NA,NA,NA,NA,NA,NA,NA,NA,NA
"110",110,"Thyroid disease","Clinical","Disease Registers",1,"Thyroid disease present ","Y_N",NA,NA,NA,NA,NA,NA,NA,NA,NA,NA,NA,NA,NA,NA
"111",111,"DVLC informed","Clinical","Epilepsy",1,"DVLC informed ","Y_N",NA,NA,NA,NA,NA,NA,NA,NA,NA,NA,NA,NA,NA,NA
"112",112,"CHS Apgar score at 1 minute    ","Clinical","Child Health Surveillance",1,"Apgar score at 1 minute ",NA,NA,NA,NA,NA,NA,NA,NA,NA,NA,NA,NA,NA,NA,NA
"113",113,"Asthma last attack","Clinical","Asthma",3,"Oral steroids ","Y_N","Nebulised","Y_N","Hospitalised","Y_N",NA,NA,NA,NA,NA,NA,NA,NA,NA,NA
"114",114,"Pregnancy outcome","Clinical","Maternity",2,"Discharge Date","dd/mm/yyyy","Birth status","LIV",NA,NA,NA,NA,NA,NA,NA,NA,NA,NA,NA,NA
"115",115,"Delivery Details (CHS)","Clinical","Child Health Surveillance",2,"Birth Mode","BMO","Birth Presentation","BPR",NA,NA,NA,NA,NA,NA,NA,NA,NA,NA,NA,NA
"116",116,"Foetal examination","Clinical","Maternity",5,"Fundus ",NA,"Unit of measure","SUM","Foetal Heart Heard","Y_N","Foetal Movement Felt","Y_N","Foetal Presentation","FPR",NA,NA,NA,NA,NA,NA
"117",117,"Foot pulse right leg","Clinical","Diabetes",2,"Right Dorsalis Pedis","PRE","Right Posterior Tibia","PRE",NA,NA,NA,NA,NA,NA,NA,NA,NA,NA,NA,NA
"118",118,"Foot pulse left leg","Clinical","Diabetes",2,"Left Dorsalis Pedis","PRE","Left Posterior Tibia","PRE",NA,NA,NA,NA,NA,NA,NA,NA,NA,NA,NA,NA
"119",119,"Gestation - maternity outcome","Clinical","Maternity",2,"Weeks ",NA,"Qualifier","SUM",NA,NA,NA,NA,NA,NA,NA,NA,NA,NA,NA,NA
"120",120,"Gestational age of baby","Clinical","Child Health Surveillance",3,"Weeks ",NA,"Unit of measure","SUM","Outcome of Delivery","SIN",NA,NA,NA,NA,NA,NA,NA,NA,NA,NA
"121",121,"Asthma management at 30% peak flow","Clinical","Asthma",1,"Asthma Management 30%","AMA",NA,NA,NA,NA,NA,NA,NA,NA,NA,NA,NA,NA,NA,NA
"122",122,"Asthma management at 50% peak flow","Clinical","Asthma",1,"Asthma Management 50%","AMA",NA,NA,NA,NA,NA,NA,NA,NA,NA,NA,NA,NA,NA,NA
"123",123,"Asthma management at 80% peak flow","Clinical","Asthma",1,"Asthma Management 80%","AMA",NA,NA,NA,NA,NA,NA,NA,NA,NA,NA,NA,NA,NA,NA
"124",124,"Hygiene - elderly","Clinical","Elderly",2,"Hygiene at home","GMP","Personal Hygiene","GMP",NA,NA,NA,NA,NA,NA,NA,NA,NA,NA,NA,NA
"125",125,"CHS hospital follow up","Clinical","Child Health Surveillance",3,"Follow up ","Y_N","Appointment Date","dd/mm/yyyy","Hospital",NA,NA,NA,NA,NA,NA,NA,NA,NA,NA,NA
"126",126,"Maternity infant details","Clinical","Maternity",7,"Date of birth",NA,"Baby gender","SEX","Birth Weight ",NA,"Birth Weight Unit","SUM","Apgar score at 1 minute  ",NA,"Apgar score at 5 minutes ",NA,"Outcome","POC",NA,NA
"127",127,"Passive smoking","Clinical","Lifestyle",2,"Passive smoker ","Y_N","Cause","PSM",NA,NA,NA,NA,NA,NA,NA,NA,NA,NA,NA,NA
"128",128,"Perineum","Clinical","Maternity",3,"Episiotomy","Y_N","Tear stage",NA,"Sutures to remove","Y_N",NA,NA,NA,NA,NA,NA,NA,NA,NA,NA
"129",129,"Pregnancy dates","Clinical","Maternity",2,"LMP Certainty","LMP","Expected date of delivery","dd/mm/yyyy",NA,NA,NA,NA,NA,NA,NA,NA,NA,NA,NA,NA
"130",130,"Pre - treatment BP","Clinical","Examination Findings",0,NA,NA,NA,NA,NA,NA,NA,NA,NA,NA,NA,NA,NA,NA,NA,NA
"131",131,"Pulse (CVS/BP)","Clinical","Examination Findings",1,"Pulse rate ",NA,NA,NA,NA,NA,NA,NA,NA,NA,NA,NA,NA,NA,NA,NA
"132",132,"Residence","Clinical","Lifestyle",2,"Type of residence","RES","Lives Alone","Y_N",NA,NA,NA,NA,NA,NA,NA,NA,NA,NA,NA,NA
"133",133,"CHS Sphincters","Clinical","Child Health Surveillance",4,"Dry by Day ","Y_N","Dry by Night","Y_N","Clean by Day","Y_N","Clean by Night","Y_N",NA,NA,NA,NA,NA,NA,NA,NA
"134",134,"Visual acuity right eye","Clinical","Diabetes",2,"Visual Acuity","VIS","Visual Aid","GLA",NA,NA,NA,NA,NA,NA,NA,NA,NA,NA,NA,NA
"135",135,"Visual acuity left eye","Clinical","Diabetes",2,"Visual Acuity","VIS","Visual Aid","GLA",NA,NA,NA,NA,NA,NA,NA,NA,NA,NA,NA,NA
"136",136,"Schooling CHS","Clinical","Child Health Surveillance",1,"Attends school ","Y_N",NA,NA,NA,NA,NA,NA,NA,NA,NA,NA,NA,NA,NA,NA
"137",137,"Allergy and intolerance (non drug)","Clinical","Allergy & Intolerance",3,"Reaction Type","RCT","Severity","SEV","Certainty","CER",NA,NA,NA,NA,NA,NA,NA,NA,NA,NA
"138",138,"Asthma concerns","Clinical","Asthma",0,NA,NA,NA,NA,NA,NA,NA,NA,NA,NA,NA,NA,NA,NA,NA,NA
"139",139,"Parental concerns","Clinical","Miscellaneous",0,NA,NA,NA,NA,NA,NA,NA,NA,NA,NA,NA,NA,NA,NA,NA,NA
"140",140,"Epilepsy register","Clinical","Disease Registers",0,NA,NA,NA,NA,NA,NA,NA,NA,NA,NA,NA,NA,NA,NA,NA,NA
"141",141,"Maternity plan","Clinical","Maternity",0,NA,NA,NA,NA,NA,NA,NA,NA,NA,NA,NA,NA,NA,NA,NA,NA
"142",142,"Continence - urinary","Clinical","Elderly",1,"Continent","Y_N",NA,NA,NA,NA,NA,NA,NA,NA,NA,NA,NA,NA,NA,NA
"143",143,"Continence - bowels","Clinical","Elderly",0,NA,NA,NA,NA,NA,NA,NA,NA,NA,NA,NA,NA,NA,NA,NA,NA
"144",144,"Maternity outcome placenta","Clinical","Maternity",0,NA,NA,NA,NA,NA,NA,NA,NA,NA,NA,NA,NA,NA,NA,NA,NA
"145",145,"CHS Apgar score at 5 minutes","Clinical","Child Health Surveillance",1,"Apgar score at 5 minutes ",NA,NA,NA,NA,NA,NA,NA,NA,NA,NA,NA,NA,NA,NA,NA
"146",146,"Occupation","Clinical","Lifestyle",0,NA,NA,NA,NA,NA,NA,NA,NA,NA,NA,NA,NA,NA,NA,NA,NA
"147",147,"Cardiovascular disease risk","Clinical","CV / Hypertension",2,"Cardiovascular risk status","CVD","Risk score ",NA,NA,NA,NA,NA,NA,NA,NA,NA,NA,NA,NA,NA
"148",148,"Death administration","Clinical","Death Administartion",5,"Date of Death","dd/mm/yyyy","Last Seen Alive","dd/mm/yyyy","Post Mortem","PMR","Seen after death","AFD","Employment Related","Y_N",NA,NA,NA,NA,NA,NA
"149",149,"Cause of death","Clinical","Death Administartion",2,"Category of death","COD","Interval between last seen & death",NA,NA,NA,NA,NA,NA,NA,NA,NA,NA,NA,NA,NA
"150",150,"Post-natal visit","Clinical","Maternity",2,"Seen by",NA,"Days post-natal ",NA,NA,NA,NA,NA,NA,NA,NA,NA,NA,NA,NA,NA
"151",151,"Acid phosphatase","Test","Biochemistry (Routine)",7,"Operator","OPR","Value",NA,"Unit of measure","SUM","Qualifier","TQU","Normal range from",NA,"Normal range to",NA,"Normal range basis","POP",NA,NA
"152",152,"Albumin","Test","Biochemistry (Routine)",7,"Operator","OPR","Value",NA,"Unit of measure","SUM","Qualifier","TQU","Normal range from",NA,"Normal range to",NA,"Normal range basis","POP",NA,NA
"153",153,"Alkaline phosphatase","Test","Biochemistry (Routine)",7,"Operator","OPR","Value",NA,"Unit of measure","SUM","Qualifier","TQU","Normal range from",NA,"Normal range to",NA,"Normal range basis","POP",NA,NA
"154",154,"Alpha fetoprotein","Test","Maternity",8,"Operator","OPR","Value",NA,"Unit of measure","SUM","Qualifier","TQU","Normal range from",NA,"Normal range to",NA,"Normal range basis","POP","Weeks",NA
"155",155,"Alanine aminotransferase","Test","Biochemistry (Routine)",7,"Operator","OPR","Value",NA,"Unit of measure","SUM","Qualifier","TQU","Normal range from",NA,"Normal range to",NA,"Normal range basis","POP",NA,NA
"156",156,"Aspartate aminotransferase","Test","Biochemistry (Routine)",7,"Operator","OPR","Value",NA,"Unit of measure","SUM","Qualifier","TQU","Normal range from",NA,"Normal range to",NA,"Normal range basis","POP",NA,NA
"157",157,"B12 levels","Test","Biochemistry (Other)",7,"Operator","OPR","Value",NA,"Unit of measure","SUM","Qualifier","TQU","Normal range from",NA,"Normal range to",NA,"Normal range basis","POP",NA,NA
"158",158,"Bilirubin","Test","Biochemistry (Routine)",7,"Operator","OPR","Value",NA,"Unit of measure","SUM","Qualifier","TQU","Normal range from",NA,"Normal range to",NA,"Normal range basis","POP",NA,NA
"159",159,"Calcium","Test","Biochemistry (Routine)",7,"Operator","OPR","Value",NA,"Unit of measure","SUM","Qualifier","TQU","Normal range from",NA,"Normal range to",NA,"Normal range basis","POP",NA,NA
"160",160,"Calcium adjusted","Test","Biochemistry (Routine)",7,"Operator","OPR","Value",NA,"Unit of measure","SUM","Qualifier","TQU","Normal range from",NA,"Normal range to",NA,"Normal range basis","POP",NA,NA
"161",161,"Carbemazepine","Test","Biochemistry (Other)",7,"Operator","OPR","Value",NA,"Unit of measure","SUM","Qualifier","TQU","Normal range from",NA,"Normal range to",NA,"Normal range basis","POP",NA,NA
"162",162,"Serum chloride","Test","Biochemistry (Routine)",7,"Operator","OPR","Value",NA,"Unit of measure","SUM","Qualifier","TQU","Normal range from",NA,"Normal range to",NA,"Normal range basis","POP",NA,NA
"163",163,"Serum cholesterol","Test","Biochemistry (Routine)",7,"Operator","OPR","Value",NA,"Unit of measure","SUM","Qualifier","TQU","Normal range from",NA,"Normal range to",NA,"Normal range basis","POP",NA,NA
"164",164,"Creatine phosphokinase level","Test","Biochemistry (Routine)",7,"Operator","OPR","Value",NA,"Unit of measure","SUM","Qualifier","TQU","Normal range from",NA,"Normal range to",NA,"Normal range basis","POP",NA,NA
"165",165,"Serum creatinine","Test","Biochemistry (Routine)",7,"Operator","OPR","Value",NA,"Unit of measure","SUM","Qualifier","TQU","Normal range from",NA,"Normal range to",NA,"Normal range basis","POP",NA,NA
"166",166,"Creatinine clearance","Test","Biochemistry (Routine)",7,"Operator","OPR","Value",NA,"Unit of measure","SUM","Qualifier","TQU","Normal range from",NA,"Normal range to",NA,"Normal range basis","POP",NA,NA
"167",167,"Digoxin blood level","Test","Biochemistry (Other)",7,"Operator","OPR","Value",NA,"Unit of measure","SUM","Qualifier","TQU","Normal range from",NA,"Normal range to",NA,"Normal range basis","POP",NA,NA
"168",168,"Eosinophil count","Test","Haematology",7,"Operator","OPR","Value",NA,"Unit of measure","SUM","Qualifier","TQU","Normal range from",NA,"Normal range to",NA,"Normal range basis","POP",NA,NA
"169",169,"Serum ferritin","Test","Biochemistry (Other)",7,"Operator","OPR","Value",NA,"Unit of measure","SUM","Qualifier","TQU","Normal range from",NA,"Normal range to",NA,"Normal range basis","POP",NA,NA
"170",170,"Folate level","Test","Biochemistry (Other)",7,"Operator","OPR","Value",NA,"Unit of measure","SUM","Qualifier","TQU","Normal range from",NA,"Normal range to",NA,"Normal range basis","POP",NA,NA
"171",171,"Follicle stimulating hormone","Test","Biochemistry (Hormone)",7,"Operator","OPR","Value",NA,"Unit of measure","SUM","Qualifier","TQU","Normal range from",NA,"Normal range to",NA,"Normal range basis","POP",NA,NA
"172",172,"Gamma glutamyl transpeptidase","Test","Biochemistry (Routine)",7,"Operator","OPR","Value",NA,"Unit of measure","SUM","Qualifier","TQU","Normal range from",NA,"Normal range to",NA,"Normal range basis","POP",NA,NA
"173",173,"Haemoglobin","Test","Haematology",7,"Operator","OPR","Value",NA,"Unit of measure","SUM","Qualifier","TQU","Normal range from",NA,"Normal range to",NA,"Normal range basis","POP",NA,NA
"174",174,"Human chorionic gonadotropin","Test","Biochemistry (Hormone)",7,"Operator","OPR","Value",NA,"Unit of measure","SUM","Qualifier","TQU","Normal range from",NA,"Normal range to",NA,"Normal range basis","POP",NA,NA
"175",175,"High density lipoprotein","Test","Biochemistry (Routine)",7,"Operator","OPR","Value",NA,"Unit of measure","SUM","Qualifier","TQU","Normal range from",NA,"Normal range to",NA,"Normal range basis","POP",NA,NA
"176",176,"Lactate dehydrogenase","Test","Biochemistry (Routine)",7,"Operator","OPR","Value",NA,"Unit of measure","SUM","Qualifier","TQU","Normal range from",NA,"Normal range to",NA,"Normal range basis","POP",NA,NA
"177",177,"Low density lipoprotein","Test","Biochemistry (Routine)",7,"Operator","OPR","Value",NA,"Unit of measure","SUM","Qualifier","TQU","Normal range from",NA,"Normal range to",NA,"Normal range basis","POP",NA,NA
"178",178,"Luteinising hormone","Test","Biochemistry (Hormone)",7,"Operator","OPR","Value",NA,"Unit of measure","SUM","Qualifier","TQU","Normal range from",NA,"Normal range to",NA,"Normal range basis","POP",NA,NA
"179",179,"Lithium levels","Test","Biochemistry (Other)",7,"Operator","OPR","Value",NA,"Unit of measure","SUM","Qualifier","TQU","Normal range from",NA,"Normal range to",NA,"Normal range basis","POP",NA,NA
"180",180,"Mean corpuscular haemoglobin","Test","Haematology",7,"Operator","OPR","Value",NA,"Unit of measure","SUM","Qualifier","TQU","Normal range from",NA,"Normal range to",NA,"Normal range basis","POP",NA,NA
"181",181,"MCH Hb Concentration","Test","Haematology",7,"Operator","OPR","Value",NA,"Unit of measure","SUM","Qualifier","TQU","Normal range from",NA,"Normal range to",NA,"Normal range basis","POP",NA,NA
"182",182,"Mean corpuscular volume","Test","Haematology",7,"Operator","OPR","Value",NA,"Unit of measure","SUM","Qualifier","TQU","Normal range from",NA,"Normal range to",NA,"Normal range basis","POP",NA,NA
"183",183,"Monocyte count","Test","Haematology",7,"Operator","OPR","Value",NA,"Unit of measure","SUM","Qualifier","TQU","Normal range from",NA,"Normal range to",NA,"Normal range basis","POP",NA,NA
"184",184,"Neutrophil count","Test","Haematology",7,"Operator","OPR","Value",NA,"Unit of measure","SUM","Qualifier","TQU","Normal range from",NA,"Normal range to",NA,"Normal range basis","POP",NA,NA
"185",185,"Oestrodiol level","Test","Biochemistry (Hormone)",7,"Operator","OPR","Value",NA,"Unit of measure","SUM","Qualifier","TQU","Normal range from",NA,"Normal range to",NA,"Normal range basis","POP",NA,NA
"186",186,"Phenobarbitone","Test","Biochemistry (Other)",7,"Operator","OPR","Value",NA,"Unit of measure","SUM","Qualifier","TQU","Normal range from",NA,"Normal range to",NA,"Normal range basis","POP",NA,NA
"187",187,"Phenytoin","Test","Biochemistry (Other)",7,"Operator","OPR","Value",NA,"Unit of measure","SUM","Qualifier","TQU","Normal range from",NA,"Normal range to",NA,"Normal range basis","POP",NA,NA
"188",188,"Serum inorganic phosphate","Test","Biochemistry (Routine)",7,"Operator","OPR","Value",NA,"Unit of measure","SUM","Qualifier","TQU","Normal range from",NA,"Normal range to",NA,"Normal range basis","POP",NA,NA
"189",189,"Platelets","Test","Haematology",7,"Operator","OPR","Value",NA,"Unit of measure","SUM","Qualifier","TQU","Normal range from",NA,"Normal range to",NA,"Normal range basis","POP",NA,NA
"190",190,"Potassium","Test","Biochemistry (Routine)",7,"Operator","OPR","Value",NA,"Unit of measure","SUM","Qualifier","TQU","Normal range from",NA,"Normal range to",NA,"Normal range basis","POP",NA,NA
"191",191,"Progesterone","Test","Biochemistry (Hormone)",7,"Operator","OPR","Value",NA,"Unit of measure","SUM","Qualifier","TQU","Normal range from",NA,"Normal range to",NA,"Normal range basis","POP",NA,NA
"192",192,"Prolactin level","Test","Biochemistry (Hormone)",7,"Operator","OPR","Value",NA,"Unit of measure","SUM","Qualifier","TQU","Normal range from",NA,"Normal range to",NA,"Normal range basis","POP",NA,NA
"193",193,"Prostatic acid phosphatase","Test","Biochemistry (Routine)",7,"Operator","OPR","Value",NA,"Unit of measure","SUM","Qualifier","TQU","Normal range from",NA,"Normal range to",NA,"Normal range basis","POP",NA,NA
"194",194,"Red blood cell count","Test","Haematology",7,"Operator","OPR","Value",NA,"Unit of measure","SUM","Qualifier","TQU","Normal range from",NA,"Normal range to",NA,"Normal range basis","POP",NA,NA
"195",195,"Reticulocytes","Test","Haematology",7,"Operator","OPR","Value",NA,"Unit of measure","SUM","Qualifier","TQU","Normal range from",NA,"Normal range to",NA,"Normal range basis","POP",NA,NA
"196",196,"Sodium","Test","Biochemistry (Routine)",7,"Operator","OPR","Value",NA,"Unit of measure","SUM","Qualifier","TQU","Normal range from",NA,"Normal range to",NA,"Normal range basis","POP",NA,NA
"197",197,"Triodothyronine","Test","Biochemistry (Routine)",7,"Operator","OPR","Value",NA,"Unit of measure","SUM","Qualifier","TQU","Normal range from",NA,"Normal range to",NA,"Normal range basis","POP",NA,NA
"198",198,"Thyroxine","Test","Biochemistry (Other)",7,"Operator","OPR","Value",NA,"Unit of measure","SUM","Qualifier","TQU","Normal range from",NA,"Normal range to",NA,"Normal range basis","POP",NA,NA
"199",199,"Testosterone","Test","Biochemistry (Hormone)",7,"Operator","OPR","Value",NA,"Unit of measure","SUM","Qualifier","TQU","Normal range from",NA,"Normal range to",NA,"Normal range basis","POP",NA,NA
"200",200,"Theophylline","Test","Biochemistry (Other)",7,"Operator","OPR","Value",NA,"Unit of measure","SUM","Qualifier","TQU","Normal range from",NA,"Normal range to",NA,"Normal range basis","POP",NA,NA
"201",201,"Total protein","Test","Biochemistry (Routine)",7,"Operator","OPR","Value",NA,"Unit of measure","SUM","Qualifier","TQU","Normal range from",NA,"Normal range to",NA,"Normal range basis","POP",NA,NA
"202",202,"Triglycerides","Test","Biochemistry (Routine)",7,"Operator","OPR","Value",NA,"Unit of measure","SUM","Qualifier","TQU","Normal range from",NA,"Normal range to",NA,"Normal range basis","POP",NA,NA
"203",203,"Thyroid stimulating hormone","Test","Biochemistry (Hormone)",7,"Operator","OPR","Value",NA,"Unit of measure","SUM","Qualifier","TQU","Normal range from",NA,"Normal range to",NA,"Normal range basis","POP",NA,NA
"204",204,"Urea - blood","Test","Biochemistry (Routine)",7,"Operator","OPR","Value",NA,"Unit of measure","SUM","Qualifier","TQU","Normal range from",NA,"Normal range to",NA,"Normal range basis","POP",NA,NA
"205",205,"Valproate","Test","Biochemistry (Other)",7,"Operator","OPR","Value",NA,"Unit of measure","SUM","Qualifier","TQU","Normal range from",NA,"Normal range to",NA,"Normal range basis","POP",NA,NA
"206",206,"Very low density lipoprotein","Test","Biochemistry (Routine)",7,"Operator","OPR","Value",NA,"Unit of measure","SUM","Qualifier","TQU","Normal range from",NA,"Normal range to",NA,"Normal range basis","POP",NA,NA
"207",207,"Total White Blood cell count","Test","Haematology",7,"Operator","OPR","Value",NA,"Unit of measure","SUM","Qualifier","TQU","Normal range from",NA,"Normal range to",NA,"Normal range basis","POP",NA,NA
"208",208,"Lymphocyte count","Test","Haematology",7,"Operator","OPR","Value",NA,"Unit of measure","SUM","Qualifier","TQU","Normal range from",NA,"Normal range to",NA,"Normal range basis","POP",NA,NA
"209",209,"Amniocentesis","Test","Maternity",4,"Qualifier","TQU","Normal range from",NA,"Normal range to",NA,"Normal range basis",NA,NA,NA,NA,NA,NA,NA,NA,NA
"210",210,"B12 & Folate level","Test","Biochemistry (Other)",4,"Qualifier","TQU","Normal range from",NA,"Normal range to",NA,"Normal range basis",NA,NA,NA,NA,NA,NA,NA,NA,NA
"211",211,"Barium enema","Test","Diagnostic Imaging",4,"Qualifier","TQU","Normal range from",NA,"Normal range to",NA,"Normal range basis",NA,NA,NA,NA,NA,NA,NA,NA,NA
"212",212,"Barium meal","Test","Diagnostic Imaging",4,"Qualifier","TQU","Normal range from",NA,"Normal range to",NA,"Normal range basis",NA,NA,NA,NA,NA,NA,NA,NA,NA
"213",213,"Blood glucose","Test","Biochemistry (Routine)",7,"Operator","OPR","Value",NA,"Unit of measure","SUM","Qualifier","TQU","Normal range from",NA,"Normal range to",NA,"Normal range basis","POP",NA,NA
"214",214,"Blood lipids","Test","Biochemistry (Routine)",4,"Qualifier","TQU","Normal range from",NA,"Normal range to",NA,"Normal range basis",NA,NA,NA,NA,NA,NA,NA,NA,NA
"215",215,"Clotting tests","Test","Haematology",4,"Qualifier","TQU","Normal range from",NA,"Normal range to",NA,"Normal range basis",NA,NA,NA,NA,NA,NA,NA,NA,NA
"216",216,"Drug levels","Test","Biochemistry (Other)",4,"Qualifier","TQU","Normal range from",NA,"Normal range to",NA,"Normal range basis",NA,NA,NA,NA,NA,NA,NA,NA,NA
"217",217,"Electrocardiogram","Test","Diagnostic Tests",4,"Qualifier","TQU","Normal range from",NA,"Normal range to",NA,"Normal range basis",NA,NA,NA,NA,NA,NA,NA,NA,NA
"218",218,"Endoscopy","Test","Diagnostic Tests",4,"Qualifier","TQU","Normal range from",NA,"Normal range to",NA,"Normal range basis",NA,NA,NA,NA,NA,NA,NA,NA,NA
"219",219,"Faecal occult blood","Test","Microbiology",4,"Qualifier","TQU","Normal range from",NA,"Normal range to",NA,"Normal range basis",NA,NA,NA,NA,NA,NA,NA,NA,NA
"220",220,"Full blood count","Test","Haematology",4,"Qualifier","TQU","Normal range from",NA,"Normal range to",NA,"Normal range basis",NA,NA,NA,NA,NA,NA,NA,NA,NA
"221",221,"Glandular fever test","Test","Serology & Immunology",4,"Qualifier","TQU","Normal range from",NA,"Normal range to",NA,"Normal range basis",NA,NA,NA,NA,NA,NA,NA,NA,NA
"222",222,"Glucose tolerance test","Test","Biochemistry (Routine)",4,"Qualifier","TQU","Normal range from",NA,"Normal range to",NA,"Normal range basis",NA,NA,NA,NA,NA,NA,NA,NA,NA
"223",223,"Iron studies","Test","Biochemistry (Other)",4,"Qualifier","TQU","Normal range from",NA,"Normal range to",NA,"Normal range basis",NA,NA,NA,NA,NA,NA,NA,NA,NA
"224",224,"Intravenous pyelogram (IVP)","Test","Diagnostic Imaging",4,"Qualifier","TQU","Normal range from",NA,"Normal range to",NA,"Normal range basis",NA,NA,NA,NA,NA,NA,NA,NA,NA
"225",225,"Liver function tests","Test","Biochemistry (Routine)",4,"Qualifier","TQU","Normal range from",NA,"Normal range to",NA,"Normal range basis",NA,NA,NA,NA,NA,NA,NA,NA,NA
"226",226,"Mammogram","Test","Diagnostic Imaging",4,"Qualifier","TQU","Normal range from",NA,"Normal range to",NA,"Normal range basis",NA,NA,NA,NA,NA,NA,NA,NA,NA
"227",227,"Mid-stream specimen of urine","Test","Microbiology",4,"Qualifier","TQU","Normal range from",NA,"Normal range to",NA,"Normal range basis",NA,NA,NA,NA,NA,NA,NA,NA,NA
"228",228,"Nail clippings","Test","Microbiology",4,"Qualifier","TQU","Normal range from",NA,"Normal range to",NA,"Normal range basis",NA,NA,NA,NA,NA,NA,NA,NA,NA
"229",229,"Pregnancy test","Test","Maternity",4,"Qualifier","TQU","Normal range from",NA,"Normal range to",NA,"Normal range basis",NA,NA,NA,NA,NA,NA,NA,NA,NA
"230",230,"Seminal analysis","Test","Microbiology",4,"Qualifier","TQU","Normal range from",NA,"Normal range to",NA,"Normal range basis",NA,NA,NA,NA,NA,NA,NA,NA,NA
"231",231,"Serology","Test","Serology & Immunology",4,"Qualifier","TQU","Normal range from",NA,"Normal range to",NA,"Normal range basis",NA,NA,NA,NA,NA,NA,NA,NA,NA
"232",232,"Female sex hormone profile","Test","Biochemistry (Hormone)",4,"Qualifier","TQU","Normal range from",NA,"Normal range to",NA,"Normal range basis",NA,NA,NA,NA,NA,NA,NA,NA,NA
"233",233,"Male sex hormone profile","Test","Biochemistry (Hormone)",4,"Qualifier","TQU","Normal range from",NA,"Normal range to",NA,"Normal range basis",NA,NA,NA,NA,NA,NA,NA,NA,NA
"234",234,"Sputum culture","Test","Microbiology",4,"Qualifier","TQU","Normal range from",NA,"Normal range to",NA,"Normal range basis",NA,NA,NA,NA,NA,NA,NA,NA,NA
"235",235,"Stool culture","Test","Microbiology",4,"Qualifier","TQU","Normal range from",NA,"Normal range to",NA,"Normal range basis",NA,NA,NA,NA,NA,NA,NA,NA,NA
"236",236,"Thyroid function","Test","Biochemistry (Other)",4,"Qualifier","TQU","Normal range from",NA,"Normal range to",NA,"Normal range basis",NA,NA,NA,NA,NA,NA,NA,NA,NA
"237",237,"Abdominal ultra sound","Test","Diagnostic Imaging",4,"Qualifier","TQU","Normal range from",NA,"Normal range to",NA,"Normal range basis",NA,NA,NA,NA,NA,NA,NA,NA,NA
"238",238,"Pelvic ultra sound","Test","Diagnostic Imaging",4,"Qualifier","TQU","Normal range from",NA,"Normal range to",NA,"Normal range basis",NA,NA,NA,NA,NA,NA,NA,NA,NA
"239",239,"Urea and electrolytes","Test","Biochemistry (Routine)",4,"Qualifier","TQU","Normal range from",NA,"Normal range to",NA,"Normal range basis",NA,NA,NA,NA,NA,NA,NA,NA,NA
"240",240,"Urine test","Test","Microbiology",4,"Qualifier","TQU","Normal range from",NA,"Normal range to",NA,"Normal range basis",NA,NA,NA,NA,NA,NA,NA,NA,NA
"241",241,"Eye swab","Test","Microbiology",4,"Qualifier","TQU","Normal range from",NA,"Normal range to",NA,"Normal range basis",NA,NA,NA,NA,NA,NA,NA,NA,NA
"242",242,"Cervical swab","Test","Microbiology",4,"Qualifier","TQU","Normal range from",NA,"Normal range to",NA,"Normal range basis",NA,NA,NA,NA,NA,NA,NA,NA,NA
"243",243,"High vaginal swab","Test","Microbiology",4,"Qualifier","TQU","Normal range from",NA,"Normal range to",NA,"Normal range basis",NA,NA,NA,NA,NA,NA,NA,NA,NA
"244",244,"Nose swab","Test","Microbiology",4,"Qualifier","TQU","Normal range from",NA,"Normal range to",NA,"Normal range basis",NA,NA,NA,NA,NA,NA,NA,NA,NA
"245",245,"Other swab","Test","Microbiology",4,"Qualifier","TQU","Normal range from",NA,"Normal range to",NA,"Normal range basis",NA,NA,NA,NA,NA,NA,NA,NA,NA
"246",246,"Penile swab","Test","Microbiology",4,"Qualifier","TQU","Normal range from",NA,"Normal range to",NA,"Normal range basis",NA,NA,NA,NA,NA,NA,NA,NA,NA
"247",247,"Skin swab","Test","Microbiology",4,"Qualifier","TQU","Normal range from",NA,"Normal range to",NA,"Normal range basis",NA,NA,NA,NA,NA,NA,NA,NA,NA
"248",248,"Throat swab","Test","Microbiology",4,"Qualifier","TQU","Normal range from",NA,"Normal range to",NA,"Normal range basis",NA,NA,NA,NA,NA,NA,NA,NA,NA
"249",249,"Vaginal swab","Test","Microbiology",4,"Qualifier","TQU","Normal range from",NA,"Normal range to",NA,"Normal range basis",NA,NA,NA,NA,NA,NA,NA,NA,NA
"250",250,"Wound swab","Test","Microbiology",4,"Qualifier","TQU","Normal range from",NA,"Normal range to",NA,"Normal range basis",NA,NA,NA,NA,NA,NA,NA,NA,NA
"251",251,"Other diagnostic imaging","Test","Diagnostic Imaging",4,"Qualifier","TQU","Normal range from",NA,"Normal range to",NA,"Normal range basis",NA,NA,NA,NA,NA,NA,NA,NA,NA
"252",252,"Ankle x-ray","Test","Diagnostic Imaging",4,"Qualifier","TQU","Normal range from",NA,"Normal range to",NA,"Normal range basis",NA,NA,NA,NA,NA,NA,NA,NA,NA
"253",253,"Chest x-ray","Test","Diagnostic Imaging",4,"Qualifier","TQU","Normal range from",NA,"Normal range to",NA,"Normal range basis",NA,NA,NA,NA,NA,NA,NA,NA,NA
"254",254,"Elbow x-ray","Test","Diagnostic Imaging",4,"Qualifier","TQU","Normal range from",NA,"Normal range to",NA,"Normal range basis",NA,NA,NA,NA,NA,NA,NA,NA,NA
"255",255,"Upper leg x-ray","Test","Diagnostic Imaging",4,"Qualifier","TQU","Normal range from",NA,"Normal range to",NA,"Normal range basis",NA,NA,NA,NA,NA,NA,NA,NA,NA
"256",256,"Foot x-ray","Test","Diagnostic Imaging",4,"Qualifier","TQU","Normal range from",NA,"Normal range to",NA,"Normal range basis",NA,NA,NA,NA,NA,NA,NA,NA,NA
"257",257,"Hand x-ray","Test","Diagnostic Imaging",4,"Qualifier","TQU","Normal range from",NA,"Normal range to",NA,"Normal range basis",NA,NA,NA,NA,NA,NA,NA,NA,NA
"258",258,"Hip x-ray","Test","Diagnostic Imaging",4,"Qualifier","TQU","Normal range from",NA,"Normal range to",NA,"Normal range basis",NA,NA,NA,NA,NA,NA,NA,NA,NA
"259",259,"Upper arm x-ray","Test","Diagnostic Imaging",4,"Qualifier","TQU","Normal range from",NA,"Normal range to",NA,"Normal range basis",NA,NA,NA,NA,NA,NA,NA,NA,NA
"260",260,"Knee x-ray","Test","Diagnostic Imaging",4,"Qualifier","TQU","Normal range from",NA,"Normal range to",NA,"Normal range basis",NA,NA,NA,NA,NA,NA,NA,NA,NA
"261",261,"Neck x-ray","Test","Diagnostic Imaging",4,"Qualifier","TQU","Normal range from",NA,"Normal range to",NA,"Normal range basis",NA,NA,NA,NA,NA,NA,NA,NA,NA
"262",262,"Pelvis x-ray","Test","Diagnostic Imaging",4,"Qualifier","TQU","Normal range from",NA,"Normal range to",NA,"Normal range basis",NA,NA,NA,NA,NA,NA,NA,NA,NA
"263",263,"Ribs x-ray","Test","Diagnostic Imaging",4,"Qualifier","TQU","Normal range from",NA,"Normal range to",NA,"Normal range basis",NA,NA,NA,NA,NA,NA,NA,NA,NA
"264",264,"Shoulder x-ray","Test","Diagnostic Imaging",4,"Qualifier","TQU","Normal range from",NA,"Normal range to",NA,"Normal range basis",NA,NA,NA,NA,NA,NA,NA,NA,NA
"265",265,"Sinus x-ray","Test","Diagnostic Imaging",4,"Qualifier","TQU","Normal range from",NA,"Normal range to",NA,"Normal range basis",NA,NA,NA,NA,NA,NA,NA,NA,NA
"266",266,"Skull x-ray","Test","Diagnostic Imaging",4,"Qualifier","TQU","Normal range from",NA,"Normal range to",NA,"Normal range basis",NA,NA,NA,NA,NA,NA,NA,NA,NA
"267",267,"Spine x-ray","Test","Diagnostic Imaging",4,"Qualifier","TQU","Normal range from",NA,"Normal range to",NA,"Normal range basis",NA,NA,NA,NA,NA,NA,NA,NA,NA
"268",268,"Lower leg x-ray","Test","Diagnostic Imaging",4,"Qualifier","TQU","Normal range from",NA,"Normal range to",NA,"Normal range basis",NA,NA,NA,NA,NA,NA,NA,NA,NA
"269",269,"Wrist x-ray","Test","Diagnostic Imaging",4,"Qualifier","TQU","Normal range from",NA,"Normal range to",NA,"Normal range basis",NA,NA,NA,NA,NA,NA,NA,NA,NA
"270",270,"Rubella test","Test","Serology & Immunology",4,"Qualifier","TQU","Normal range from",NA,"Normal range to",NA,"Normal range basis",NA,NA,NA,NA,NA,NA,NA,NA,NA
"271",271,"Tuberculin test","Test","Serology & Immunology",4,"Qualifier","TQU","Normal range from",NA,"Normal range to",NA,"Normal range basis",NA,NA,NA,NA,NA,NA,NA,NA,NA
"272",272,"Amylase","Test","Biochemistry (Other)",7,"Operator","OPR","Value",NA,"Unit of measure","SUM","Qualifier","TQU","Normal range from",NA,"Normal range to",NA,"Normal range basis","POP",NA,NA
"273",273,"Erythrocyte sedimentation rate","Test","Haematology",7,"Operator","OPR","Value",NA,"Unit of measure","SUM","Qualifier","TQU","Normal range from",NA,"Normal range to",NA,"Normal range basis","POP",NA,NA
"274",274,"Fasting glucose","Test","Biochemistry (Routine)",7,"Operator","OPR","Value",NA,"Unit of measure","SUM","Qualifier","TQU","Normal range from",NA,"Normal range to",NA,"Normal range basis","POP",NA,NA
"275",275,"HbA1c - diabetic control","Test","Biochemistry (Routine)",7,"Operator","OPR","Value",NA,"Unit of measure","SUM","Qualifier","TQU","Normal range from",NA,"Normal range to",NA,"Normal range basis","POP",NA,NA
"276",276,"Prostate specific antigen","Test","Biochemistry (Hormone)",7,"Operator","OPR","Value",NA,"Unit of measure","SUM","Qualifier","TQU","Normal range from",NA,"Normal range to",NA,"Normal range basis","POP",NA,NA
"277",277,"Uric acid blood level","Test","Biochemistry (Routine)",7,"Operator","OPR","Value",NA,"Unit of measure","SUM","Qualifier","TQU","Normal range from",NA,"Normal range to",NA,"Normal range basis","POP",NA,NA
"278",278,"Anti mitochondrial antibodies","Test","Serology & Immunology",4,"Qualifier","TQU","Normal range from",NA,"Normal range to",NA,"Normal range basis",NA,NA,NA,NA,NA,NA,NA,NA,NA
"279",279,"Anti nuclear antibodies","Test","Serology & Immunology",4,"Qualifier","TQU","Normal range from",NA,"Normal range to",NA,"Normal range basis",NA,NA,NA,NA,NA,NA,NA,NA,NA
"280",280,"C Reactive protein","Test","Serology & Immunology",7,"Operator","OPR","Value",NA,"Unit of measure","SUM","Qualifier","TQU","Normal range from",NA,"Normal range to",NA,"Normal range basis","POP",NA,NA
"281",281,"Blood group antibodies","Test","Haematology",4,"Qualifier","TQU","Normal range from",NA,"Normal range to",NA,"Normal range basis",NA,NA,NA,NA,NA,NA,NA,NA,NA
"282",282,"Syphilis test","Test","Serology & Immunology",4,"Qualifier","TQU","Normal range from",NA,"Normal range to",NA,"Normal range basis",NA,NA,NA,NA,NA,NA,NA,NA,NA
"283",283,"Viral studies","Test","Serology & Immunology",4,"Qualifier","TQU","Normal range from",NA,"Normal range to",NA,"Normal range basis",NA,NA,NA,NA,NA,NA,NA,NA,NA
"284",284,"Maternity ultra sound scan","Test","Maternity",8,"Operator","OPR","Estimated size in wks",NA,"Unit of measure","SUM","Qualifier","TQU","Normal range from",NA,"Normal range to",NA,"Normal range basis","POP","Expected delivery date","dd/mm/yyyy"
"285",285,"Guthrie test","Test","Biochemistry (Other)",4,"Qualifier","TQU","Normal range from",NA,"Normal range to",NA,"Normal range basis",NA,NA,NA,NA,NA,NA,NA,NA,NA
"286",286,"Urinalysis - Glucose","Test","Biochemistry (Routine)",4,"Qualifier","TQU","Normal range from",NA,"Normal range to",NA,"Normal range basis",NA,NA,NA,NA,NA,NA,NA,NA,NA
"287",287,"Urinalysis - Protein","Test","Biochemistry (Routine)",4,"Qualifier","TQU","Normal range from",NA,"Normal range to",NA,"Normal range basis",NA,NA,NA,NA,NA,NA,NA,NA,NA
"288",288,"Other laboratory tests","Test","Other Pathology Tests",7,"Operator","OPR","Value",NA,"Unit of measure","SUM","Qualifier","TQU","Normal range from",NA,"Normal range to",NA,"Normal range basis","POP",NA,NA
"289",289,"Film report","Test","Haematology",4,"Qualifier","TQU","Normal range from",NA,"Normal range to",NA,"Normal range basis",NA,NA,NA,NA,NA,NA,NA,NA,NA
"290",290,"Immunoglobulin","Test","Serology & Immunology",7,"Operator","OPR","Value",NA,"Unit of measure","SUM","Qualifier","TQU","Normal range from",NA,"Normal range to",NA,"Normal range basis","POP",NA,NA
"291",291,"Plasma electrophoresis","Test","Serology & Immunology",4,"Qualifier","TQU","Normal range from",NA,"Normal range to",NA,"Normal range basis",NA,NA,NA,NA,NA,NA,NA,NA,NA
"292",292,"Rheumatoid factor","Test","Serology & Immunology",7,"Operator","OPR","Value",NA,"Unit of measure","SUM","Qualifier","TQU","Normal range from",NA,"Normal range to",NA,"Normal range basis","POP",NA,NA
"293",293,"Large unstained cells","Test","Haematology",7,"Operator","OPR","Value",NA,"Unit of measure","SUM","Qualifier","TQU","Normal range from",NA,"Normal range to",NA,"Normal range basis","POP",NA,NA
"294",294,"Bronchoscopy","Test","Diagnostic Tests",4,"Qualifier","TQU","Normal range from",NA,"Normal range to",NA,"Normal range basis",NA,NA,NA,NA,NA,NA,NA,NA,NA
"295",295,"Duodenoscopy","Test","Diagnostic Tests",4,"Qualifier","TQU","Normal range from",NA,"Normal range to",NA,"Normal range basis",NA,NA,NA,NA,NA,NA,NA,NA,NA
"296",296,"Colonoscopy","Test","Diagnostic Tests",4,"Qualifier","TQU","Normal range from",NA,"Normal range to",NA,"Normal range basis",NA,NA,NA,NA,NA,NA,NA,NA,NA
"297",297,"Sigmoidoscopy","Test","Diagnostic Tests",4,"Qualifier","TQU","Normal range from",NA,"Normal range to",NA,"Normal range basis",NA,NA,NA,NA,NA,NA,NA,NA,NA
"298",298,"Nuclear medicine","Test","Diagnostic Imaging",4,"Qualifier","TQU","Normal range from",NA,"Normal range to",NA,"Normal range basis",NA,NA,NA,NA,NA,NA,NA,NA,NA
"299",299,"CAT scan","Test","Diagnostic Imaging",4,"Qualifier","TQU","Normal range from",NA,"Normal range to",NA,"Normal range basis",NA,NA,NA,NA,NA,NA,NA,NA,NA
"300",300,"MRI scan","Test","Diagnostic Imaging",4,"Qualifier","TQU","Normal range from",NA,"Normal range to",NA,"Normal range basis",NA,NA,NA,NA,NA,NA,NA,NA,NA
"301",301,"Carotid angiogram","Test","Diagnostic Imaging",4,"Qualifier","TQU","Normal range from",NA,"Normal range to",NA,"Normal range basis",NA,NA,NA,NA,NA,NA,NA,NA,NA
"302",302,"Coronary angiogram","Test","Diagnostic Imaging",4,"Qualifier","TQU","Normal range from",NA,"Normal range to",NA,"Normal range basis",NA,NA,NA,NA,NA,NA,NA,NA,NA
"303",303,"Femoral arteriogram","Test","Diagnostic Imaging",4,"Qualifier","TQU","Normal range from",NA,"Normal range to",NA,"Normal range basis",NA,NA,NA,NA,NA,NA,NA,NA,NA
"304",304,"ECG exercise","Test","Diagnostic Tests",4,"Qualifier","TQU","Normal range from",NA,"Normal range to",NA,"Normal range basis",NA,NA,NA,NA,NA,NA,NA,NA,NA
"305",305,"Barium swallow","Test","Diagnostic Imaging",4,"Qualifier","TQU","Normal range from",NA,"Normal range to",NA,"Normal range basis",NA,NA,NA,NA,NA,NA,NA,NA,NA
"306",306,"Barium follow through","Test","Diagnostic Imaging",4,"Qualifier","TQU","Normal range from",NA,"Normal range to",NA,"Normal range basis",NA,NA,NA,NA,NA,NA,NA,NA,NA
"307",307,"Lung Func. before bronchodilation","Test","Asthma",7,"Operator","OPR","Value",NA,"Unit of measure","SUM","Qualifier","TQU","Normal range from",NA,"Normal range to",NA,"Normal range basis","POP",NA,NA
"308",308,"Lung Func. after bronchodilation","Test","Asthma",7,"Operator","OPR","Value",NA,"Unit of measure","SUM","Qualifier","TQU","Normal range from",NA,"Normal range to",NA,"Normal range basis","POP",NA,NA
"309",309,"PF best ever","Test","Asthma",7,"Operator","OPR","Value",NA,"Unit of measure","SUM","Qualifier","TQU","Normal range from",NA,"Normal range to",NA,"Normal range basis","POP",NA,NA
"310",310,"PF predicted","Test","Asthma",7,"Operator","OPR","Value",NA,"Unit of measure","SUM","Qualifier","TQU","Normal range from",NA,"Normal range to",NA,"Normal range basis","POP",NA,NA
"311",311,"PF current","Test","Asthma",7,"Operator","OPR","Value",NA,"Unit of measure","SUM","Qualifier","TQU","Normal range from",NA,"Normal range to",NA,"Peak flow device","PFD",NA,NA
"312",312,"Packed cell volume","Test","Haematology",7,"Operator","OPR","Value",NA,"Unit of measure","SUM","Qualifier","TQU","Normal range from",NA,"Normal range to",NA,"Normal range basis","POP",NA,NA
"313",313,"Basophil count","Test","Haematology",7,"Operator","OPR","Value",NA,"Unit of measure","SUM","Qualifier","TQU","Normal range from",NA,"Normal range to",NA,"Normal range basis","POP",NA,NA
"314",314,"Differential white cell count","Test","Haematology",4,"Qualifier","TQU","Normal range from",NA,"Normal range to",NA,"Normal range basis",NA,NA,NA,NA,NA,NA,NA,NA,NA
"315",315,"Chemical function tests","Test","Biochemistry (Other)",4,"Qualifier","TQU","Normal range from",NA,"Normal range to",NA,"Normal range basis",NA,NA,NA,NA,NA,NA,NA,NA,NA
"316",316,"Examination of faeces","Test","Microbiology",4,"Qualifier","TQU","Normal range from",NA,"Normal range to",NA,"Normal range basis",NA,NA,NA,NA,NA,NA,NA,NA,NA
"317",317,"Synovial fluid examination","Test","Microbiology",4,"Qualifier","TQU","Normal range from",NA,"Normal range to",NA,"Normal range basis",NA,NA,NA,NA,NA,NA,NA,NA,NA
"318",318,"Bone marrow examination","Test","Haematology",4,"Qualifier","TQU","Normal range from",NA,"Normal range to",NA,"Normal range basis",NA,NA,NA,NA,NA,NA,NA,NA,NA
"319",319,"Sputum examination","Test","Microbiology",4,"Qualifier","TQU","Normal range from",NA,"Normal range to",NA,"Normal range basis",NA,NA,NA,NA,NA,NA,NA,NA,NA
"320",320,"Amniotic fluid examination","Test","Maternity",4,"Qualifier","TQU","Normal range from",NA,"Normal range to",NA,"Normal range basis",NA,NA,NA,NA,NA,NA,NA,NA,NA
"321",321,"Prothrombin time","Test","Haematology",7,"Operator","OPR","Value",NA,"Unit of measure","SUM","Qualifier","TQU","Normal range from",NA,"Normal range to",NA,"Normal range basis","POP",NA,NA
"322",322,"Partial thromboplastin time","Test","Haematology",7,"Operator","OPR","Value",NA,"Unit of measure","SUM","Qualifier","TQU","Normal range from",NA,"Normal range to",NA,"Normal range basis","POP",NA,NA
"323",323,"INR","Test","Haematology",7,"Operator","OPR","Value",NA,"Unit of measure","SUM","Qualifier","TQU","Normal range from",NA,"Normal range to",NA,"Normal range basis","POP",NA,NA
"324",324,"Colour index","Test","Haematology",4,"Qualifier","TQU","Normal range from",NA,"Normal range to",NA,"Normal range basis",NA,NA,NA,NA,NA,NA,NA,NA,NA
"325",325,"SH-antigen (hepatitis b) test","Test","Serology & Immunology",4,"Qualifier","TQU","Normal range from",NA,"Normal range to",NA,"Normal range basis",NA,NA,NA,NA,NA,NA,NA,NA,NA
"326",326,"HIV test","Test","Serology & Immunology",4,"Qualifier","TQU","Normal range from",NA,"Normal range to",NA,"Normal range basis",NA,NA,NA,NA,NA,NA,NA,NA,NA
"327",327,"Infection titres","Test","Serology & Immunology",4,"Qualifier","TQU","Normal range from",NA,"Normal range to",NA,"Normal range basis",NA,NA,NA,NA,NA,NA,NA,NA,NA
"328",328,"Anti smooth muscle autoantibodies","Test","Serology & Immunology",4,"Qualifier","TQU","Normal range from",NA,"Normal range to",NA,"Normal range basis",NA,NA,NA,NA,NA,NA,NA,NA,NA
"329",329,"Thyroid autoantibodies","Test","Serology & Immunology",4,"Qualifier","TQU","Normal range from",NA,"Normal range to",NA,"Normal range basis",NA,NA,NA,NA,NA,NA,NA,NA,NA
"330",330,"DNA binding autoantibodies","Test","Serology & Immunology",4,"Qualifier","TQU","Normal range from",NA,"Normal range to",NA,"Normal range basis",NA,NA,NA,NA,NA,NA,NA,NA,NA
"331",331,"Liver enzymes","Test","Biochemistry (Routine)",4,"Qualifier","TQU","Normal range from",NA,"Normal range to",NA,"Normal range basis",NA,NA,NA,NA,NA,NA,NA,NA,NA
"332",332,"Cardiac enzymes","Test","Biochemistry (Other)",7,"Operator","OPR","Value",NA,"Unit of measure","SUM","Qualifier","TQU","Normal range from",NA,"Normal range to",NA,"Normal range basis","POP",NA,NA
"333",333,"Serum electrolytes","Test","Biochemistry (Routine)",7,"Operator","OPR","Value",NA,"Unit of measure","SUM","Qualifier","TQU","Normal range from",NA,"Normal range to",NA,"Normal range basis","POP",NA,NA
"334",334,"Serum osmolality","Test","Biochemistry (Routine)",7,"Operator","OPR","Value",NA,"Unit of measure","SUM","Qualifier","TQU","Normal range from",NA,"Normal range to",NA,"Normal range basis","POP",NA,NA
"335",335,"Serum globin","Test","Biochemistry (Routine)",7,"Operator","OPR","Value",NA,"Unit of measure","SUM","Qualifier","TQU","Normal range from",NA,"Normal range to",NA,"Normal range basis","POP",NA,NA
"336",336,"Blood trace elements / vitamins","Test","Biochemistry (Other)",7,"Operator","OPR","Value",NA,"Unit of measure","SUM","Qualifier","TQU","Normal range from",NA,"Normal range to",NA,"Normal range basis","POP",NA,NA
"337",337,"Histology","Test","Other Pathology Tests",4,"Qualifier","TQU","Normal range from",NA,"Normal range to",NA,"Normal range basis",NA,NA,NA,NA,NA,NA,NA,NA,NA
"338",338,"HDL/LDL ratio","Test","Biochemistry (Routine)",7,"Operator","OPR","Value",NA,"Unit of measure","SUM","Qualifier","TQU","Normal range from",NA,"Normal range to",NA,"Normal range basis","POP",NA,NA
"339",339,"General ultra sound scan","Test","Diagnostic Imaging",4,"Qualifier","TQU","Normal range from",NA,"Normal range to",NA,"Normal range basis",NA,NA,NA,NA,NA,NA,NA,NA,NA
"340",340,"Urine biochemistry","Test","Biochemistry (Routine)",7,"Operator","OPR","Value",NA,"Unit of measure","SUM","Qualifier","TQU","Normal range from",NA,"Normal range to",NA,"Normal range basis","POP",NA,NA
"341",341,"Abdominal xray","Test","Diagnostic Imaging",4,"Qualifier","TQU","Normal range from",NA,"Normal range to",NA,"Normal range basis",NA,NA,NA,NA,NA,NA,NA,NA,NA
"342",342,"Echocardiogram","Test","Diagnostic Tests",7,"Operator","OPR","Value",NA,"Unit of measure","SUM","Qualifier","TQU","Normal range from",NA,"Normal range to",NA,"Normal range basis","POP",NA,NA
"343",343,"Nerve conduction studies","Test","Diagnostic Tests",4,"Qualifier","TQU","Normal range from",NA,"Normal range to",NA,"Normal range basis",NA,NA,NA,NA,NA,NA,NA,NA,NA
"344",344,"Free tri-iodothyronine","Test","Biochemistry (Other)",7,"Operator","OPR","Value",NA,"Unit of measure","SUM","Qualifier","TQU","Normal range from",NA,"Normal range to",NA,"Normal range basis","POP",NA,NA
"345",345,"Free thyroxine","Test","Biochemistry (Other)",7,"Operator","OPR","Value",NA,"Unit of measure","SUM","Qualifier","TQU","Normal range from",NA,"Normal range to",NA,"Normal range basis","POP",NA,NA
"346",346,"Other autoantibodies","Test","Serology & Immunology",4,"Qualifier","TQU","Normal range from",NA,"Normal range to",NA,"Normal range basis",NA,NA,NA,NA,NA,NA,NA,NA,NA
"347",347,"Hepatitis a test","Test","Serology & Immunology",4,"Qualifier","TQU","Normal range from",NA,"Normal range to",NA,"Normal range basis",NA,NA,NA,NA,NA,NA,NA,NA,NA
"348",348,"Other bacteriology tests","Test","Microbiology",4,"Qualifier","TQU","Normal range from",NA,"Normal range to",NA,"Normal range basis",NA,NA,NA,NA,NA,NA,NA,NA,NA
"349",349,"Microscopy for malarial parasites","Test","Haematology",4,"Qualifier","TQU","Normal range from",NA,"Normal range to",NA,"Normal range basis",NA,NA,NA,NA,NA,NA,NA,NA,NA
"350",350,"Agencies","Clinical","Lifestyle",1,"Type of agency","AGC",NA,NA,NA,NA,NA,NA,NA,NA,NA,NA,NA,NA,NA,NA
"351",351,"Allowances received - elderly","Clinical","Elderly",0,NA,NA,NA,NA,NA,NA,NA,NA,NA,NA,NA,NA,NA,NA,NA,NA
"352",352,"Serum iron tests","Test","Biochemistry (Other)",7,"Operator","OPR","Value",NA,"Unit of measure","SUM","Qualifier","TQU","Normal range from",NA,"Normal range to",NA,"Normal range basis","POP",NA,NA
"353",353,"RBC - folate","Test","Haematology",7,"Operator","OPR","Value",NA,"Unit of measure","SUM","Qualifier","TQU","Normal range from",NA,"Normal range to",NA,"Normal range basis","POP",NA,NA
"354",354,"Total iron binding capacity","Test","Biochemistry (Routine)",7,"Operator","OPR","Value",NA,"Unit of measure","SUM","Qualifier","TQU","Normal range from",NA,"Normal range to",NA,"Normal range basis","POP",NA,NA
"355",355,"Bone studies","Test","Biochemistry (Routine)",4,"Qualifier","TQU","Normal range from",NA,"Normal range to",NA,"Normal range basis",NA,NA,NA,NA,NA,NA,NA,NA,NA
"356",356,"Fructosamine","Test","Biochemistry (Routine)",7,"Operator","OPR","Value",NA,"Unit of measure","SUM","Qualifier","TQU","Normal range from",NA,"Normal range to",NA,"Normal range basis","POP",NA,NA
"357",357,"Urethral swab","Test","Microbiology",4,"Qualifier","TQU","Normal range from",NA,"Normal range to",NA,"Normal range basis",NA,NA,NA,NA,NA,NA,NA,NA,NA
"358",358,"Lower arm x-ray","Test","Diagnostic Imaging",4,"Qualifier","TQU","Normal range from",NA,"Normal range to",NA,"Normal range basis",NA,NA,NA,NA,NA,NA,NA,NA,NA
"359",359,"Antostreptolysin o titre","Test","Serology & Immunology",7,"Operator","OPR","Value",NA,"Unit of measure","SUM","Qualifier","TQU","Normal range from",NA,"Normal range to",NA,"Normal range basis","POP",NA,NA
"360",360,"CAP (RAST)","Test","Serology & Immunology",4,"Qualifier","TQU","Normal range from",NA,"Normal range to",NA,"Normal range basis",NA,NA,NA,NA,NA,NA,NA,NA,NA
"361",361,"RBC red blood cell size","Test","Haematology",7,"Operator","OPR","Value",NA,"Unit of measure","SUM","Qualifier","TQU","Normal range from",NA,"Normal range to",NA,"Normal range basis","POP",NA,NA
"362",362,"Iron kinetics","Test","Biochemistry (Other)",4,"Qualifier","TQU","Normal range from",NA,"Normal range to",NA,"Normal range basis",NA,NA,NA,NA,NA,NA,NA,NA,NA
"363",363,"Lipoprotein electrophoresis","Test","Biochemistry (Routine)",4,"Qualifier","TQU","Normal range from",NA,"Normal range to",NA,"Normal range basis",NA,NA,NA,NA,NA,NA,NA,NA,NA
"364",364,"LE cells","Test","Serology & Immunology",4,"Qualifier","TQU","Normal range from",NA,"Normal range to",NA,"Normal range basis",NA,NA,NA,NA,NA,NA,NA,NA,NA
"365",365,"Gonadotrophin","Test","Biochemistry (Hormone)",4,"Qualifier","TQU","Normal range from",NA,"Normal range to",NA,"Normal range basis",NA,NA,NA,NA,NA,NA,NA,NA,NA
"366",366,"Serum cortisol","Test","Biochemistry (Hormone)",7,"Operator","OPR","Value",NA,"Unit of measure","SUM","Qualifier","TQU","Normal range from",NA,"Normal range to",NA,"Normal range basis","POP",NA,NA
"367",367,"Doppler ultrasound peripheral pulse","Test","Diagnostic Tests",4,"Qualifier","TQU","Normal range from",NA,"Normal range to",NA,"Normal range basis",NA,NA,NA,NA,NA,NA,NA,NA,NA
"368",368,"Bone density studies","Test","Diagnostic Imaging",4,"Qualifier","TQU","Normal range from",NA,"Normal range to",NA,"Normal range basis",NA,NA,NA,NA,NA,NA,NA,NA,NA
"369",369,"Sex hormone binding globulin","Test","Biochemistry (Hormone)",7,"Operator","OPR","Value",NA,"Unit of measure","SUM","Qualifier","TQU","Normal range from",NA,"Normal range to",NA,"Normal range basis","POP",NA,NA
"370",370,"Other immunology tests","Test","Serology & Immunology",4,"Qualifier","TQU","Normal range from",NA,"Normal range to",NA,"Normal range basis",NA,NA,NA,NA,NA,NA,NA,NA,NA
"371",371,"Gait for child health surveillance","Clinical","Child Health Surveillance",1,"Gait ","PHR",NA,NA,NA,NA,NA,NA,NA,NA,NA,NA,NA,NA,NA,NA
"372",372,"Scoring test result","Clinical","Diagnostic Tests",4,"Result of test ",NA,"Condition","Medical Dictionary","Scoring Methodology","Scoring","Qualifier","P_N",NA,NA,NA,NA,NA,NA,NA,NA
"373",373,"Tricyclics","Test","Biochemistry (Other)",7,"Operator","OPR","Value",NA,"Unit of measure","SUM","Qualifier","TQU","Normal range from",NA,"Normal range to",NA,"Normal range basis","POP",NA,NA
"374",374,"Plasma viscosity","Test","Haematology",7,"Operator","OPR","Value",NA,"Unit of measure","SUM","Qualifier","TQU","Normal range from",NA,"Normal range to",NA,"Normal range basis","POP",NA,NA
"375",375,"Toxicology","Test","Biochemistry (Other)",4,"Qualifier","TQU","Normal range from",NA,"Normal range to",NA,"Normal range basis",NA,NA,NA,NA,NA,NA,NA,NA,NA
"376",376,"Other drug levels","Test","Biochemistry (Other)",4,"Qualifier","TQU","Normal range from",NA,"Normal range to",NA,"Normal range basis",NA,NA,NA,NA,NA,NA,NA,NA,NA
"377",377,"E2 prostaglandin","Test","Biochemistry (Hormone)",7,"Operator","OPR","Value",NA,"Unit of measure","SUM","Qualifier","TQU","Normal range from",NA,"Normal range to",NA,"Normal range basis","POP",NA,NA
"378",378,"Venography","Test","Diagnostic Imaging",4,"Qualifier","TQU","Normal range from",NA,"Normal range to",NA,"Normal range basis",NA,NA,NA,NA,NA,NA,NA,NA,NA
"379",379,"ECG ambulatory","Test","Diagnostic Tests",4,"Qualifier","TQU","Normal range from",NA,"Normal range to",NA,"Normal range basis",NA,NA,NA,NA,NA,NA,NA,NA,NA
"380",380,"Pulmonary function tests","Test","Diagnostic Tests",4,"Qualifier","TQU","Normal range from",NA,"Normal range to",NA,"Normal range basis",NA,NA,NA,NA,NA,NA,NA,NA,NA
"381",381,"Red blood cell shape","Test","Haematology",4,"Qualifier","TQU","Normal range from",NA,"Normal range to",NA,"Normal range basis",NA,NA,NA,NA,NA,NA,NA,NA,NA
"382",382,"Red blood cell colour","Test","Haematology",4,"Qualifier","TQU","Normal range from",NA,"Normal range to",NA,"Normal range basis",NA,NA,NA,NA,NA,NA,NA,NA,NA
"383",383,"Serum amino acids","Test","Biochemistry (Other)",7,"Operator","OPR","Value",NA,"Unit of measure","SUM","Qualifier","TQU","Normal range from",NA,"Normal range to",NA,"Normal range basis","POP",NA,NA
"384",384,"Blood gases","Test","Biochemistry (Other)",4,"Qualifier","TQU","Normal range from",NA,"Normal range to",NA,"Normal range basis",NA,NA,NA,NA,NA,NA,NA,NA,NA
"385",385,"Vomit examination","Test","Microbiology",4,"Qualifier","TQU","Normal range from",NA,"Normal range to",NA,"Normal range basis",NA,NA,NA,NA,NA,NA,NA,NA,NA
"386",386,"Calculus examination","Test","Microbiology",4,"Qualifier","TQU","Normal range from",NA,"Normal range to",NA,"Normal range basis",NA,NA,NA,NA,NA,NA,NA,NA,NA
"387",387,"Haemoglobin variants","Test","Haematology",4,"Qualifier","TQU","Normal range from",NA,"Normal range to",NA,"Normal range basis",NA,NA,NA,NA,NA,NA,NA,NA,NA
"388",388,"Legionella antibody test","Test","Serology & Immunology",4,"Qualifier","TQU","Normal range from",NA,"Normal range to",NA,"Normal range basis",NA,NA,NA,NA,NA,NA,NA,NA,NA
"389",389,"Immuno electrophoresis","Test","Serology & Immunology",4,"Qualifier","TQU","Normal range from",NA,"Normal range to",NA,"Normal range basis",NA,NA,NA,NA,NA,NA,NA,NA,NA
"390",390,"Feto-placental hormones","Test","Biochemistry (Hormone)",7,"Operator","OPR","Value",NA,"Unit of measure","SUM","Qualifier","TQU","Normal range from",NA,"Normal range to",NA,"Normal range basis","POP",NA,NA
"391",391,"Serum bicarbonate","Test","Biochemistry (Routine)",7,"Operator","OPR","Value",NA,"Unit of measure","SUM","Qualifier","TQU","Normal range from",NA,"Normal range to",NA,"Normal range basis","POP",NA,NA
"392",392,"Ambulatory blood pressure","Test","Diagnostic Tests",4,"Qualifier","TQU","Normal range from",NA,"Normal range to",NA,"Normal range basis",NA,NA,NA,NA,NA,NA,NA,NA,NA
"393",393,"Skin prick test","Test","Diagnostic Tests",4,"Qualifier","TQU","Normal range from",NA,"Normal range to",NA,"Normal range basis",NA,NA,NA,NA,NA,NA,NA,NA,NA
"394",394,"Forced expiration volume in 1 sec","Test","Diagnostic Tests",7,"Operator","OPR","Value",NA,"Unit of measure","SUM","Qualifier","TQU","Normal range from",NA,"Normal range to",NA,"Normal range basis","POP",NA,NA
"395",395,"FEV1 / FVC","Test","Diagnostic Tests",7,"Operator","OPR","Value",NA,"Unit of measure","SUM","Qualifier","TQU","Normal range from",NA,"Normal range to",NA,"Normal range basis","POP",NA,NA
"396",396,"Forced vital capacity","Test","Diagnostic Tests",7,"Operator","OPR","Value",NA,"Unit of measure","SUM","Qualifier","TQU","Normal range from",NA,"Normal range to",NA,"Normal range basis","POP",NA,NA
"397",397,"Serum fibrinogen level","Test","Haematology",7,"Operator","OPR","Value",NA,"Unit of measure","SUM","Qualifier","TQU","Normal range from",NA,"Normal range to",NA,"Normal range basis","POP",NA,NA
"398",398,"Jugular venous pressure","Test","Examination Findings",7,"Operator","OPR","Value",NA,"Unit of measure","SUM","Qualifier","TQU","Normal range from",NA,"Normal range to",NA,"Normal range basis","POP",NA,NA
"399",399,"Transfer coefficient for CO","Test","Diagnostic Tests",7,"Operator","OPR","Value",NA,"Unit of measure","SUM","Qualifier","TQU","Normal range from",NA,"Normal range to",NA,"Normal range basis","POP",NA,NA
"400",400,"Serum parathyroid hormone","Test","Biochemistry (Hormone)",7,"Operator","OPR","Value",NA,"Unit of measure","SUM","Qualifier","TQU","Normal range from",NA,"Normal range to",NA,"Normal range basis","POP",NA,NA
"401",401,"Respiratory rate","Test","Examination Findings",7,"Operator","OPR","Value",NA,"Unit of measure","SUM","Qualifier","TQU","Normal range from",NA,"Normal range to",NA,"Normal range basis","POP",NA,NA
"402",402,"Temperature","Test","Examination Findings",7,"Operator","OPR","Value",NA,"Unit of measure","SUM","Qualifier","TQU","Normal range from",NA,"Normal range to",NA,"Normal range basis","POP",NA,NA
"403",403,"Urine cytology","Test","Other Pathology Tests",4,"Qualifier","TQU","Normal range from",NA,"Normal range to",NA,"Normal range basis",NA,NA,NA,NA,NA,NA,NA,NA,NA
"404",404,"Electroencephalography","Test","Diagnostic Tests",4,"Qualifier","TQU","Normal range from",NA,"Normal range to",NA,"Normal range basis",NA,NA,NA,NA,NA,NA,NA,NA,NA
"405",405,"HLA tissue typing","Test","Serology & Immunology",4,"Qualifier","TQU","Normal range from",NA,"Normal range to",NA,"Normal range basis",NA,NA,NA,NA,NA,NA,NA,NA,NA
"406",406,"Blood lead level","Test","Biochemistry (Other)",7,"Operator","OPR","Value",NA,"Unit of measure","SUM","Qualifier","TQU","Normal range from",NA,"Normal range to",NA,"Normal range basis","POP",NA,NA
"407",407,"Chlamydia","Test","Microbiology",4,"Qualifier","TQU","Normal range from",NA,"Normal range to",NA,"Normal range basis",NA,NA,NA,NA,NA,NA,NA,NA,NA
"408",408,"Oesophagoscopy","Test","Diagnostic Tests",4,"Qualifier","TQU","Normal range from",NA,"Normal range to",NA,"Normal range basis",NA,NA,NA,NA,NA,NA,NA,NA,NA
"409",409,"Renal arteriography","Test","Diagnostic Imaging",4,"Qualifier","TQU","Normal range from",NA,"Normal range to",NA,"Normal range basis",NA,NA,NA,NA,NA,NA,NA,NA,NA
"410",410,"Cerebro-spinal fluid examination","Test","Microbiology",4,"Qualifier","TQU","Normal range from",NA,"Normal range to",NA,"Normal range basis",NA,NA,NA,NA,NA,NA,NA,NA,NA
"411",411,"Postural drop in BP","Test","Examination Findings",7,"Operator","OPR","Value",NA,"Unit of measure","SUM","Qualifier","TQU","Normal range from",NA,"Normal range to",NA,"Normal range basis","POP",NA,NA
"412",412,"Airway reversibility","Test","Diagnostic Tests",7,"Operator","OPR","Value",NA,"Unit of measure","SUM","Qualifier","TQU","Normal range from",NA,"Normal range to",NA,"Normal range basis","POP",NA,NA
"413",413,"Total lung capacity","Test","Diagnostic Tests",7,"Operator","OPR","Value",NA,"Unit of measure","SUM","Qualifier","TQU","Normal range from",NA,"Normal range to",NA,"Normal range basis","POP",NA,NA
"414",414,"Blood alcohol level","Test","Biochemistry (Other)",7,"Operator","OPR","Value",NA,"Unit of measure","SUM","Qualifier","TQU","Normal range from",NA,"Normal range to",NA,"Normal range basis","POP",NA,NA
"415",415,"Methotrexate","Test","Biochemistry (Other)",7,"Operator","OPR","Value",NA,"Unit of measure","SUM","Qualifier","TQU","Normal range from",NA,"Normal range to",NA,"Normal range basis","POP",NA,NA
"416",416,"Fluoroscopy","Test","Diagnostic Imaging",4,"Qualifier","TQU","Normal range from",NA,"Normal range to",NA,"Normal range basis",NA,NA,NA,NA,NA,NA,NA,NA,NA
"417",417,"Lymphangiography","Test","Diagnostic Imaging",4,"Qualifier","TQU","Normal range from",NA,"Normal range to",NA,"Normal range basis",NA,NA,NA,NA,NA,NA,NA,NA,NA
"418",418,"Red blood cell clumping","Test","Haematology",4,"Qualifier","TQU","Normal range from",NA,"Normal range to",NA,"Normal range basis",NA,NA,NA,NA,NA,NA,NA,NA,NA
"419",419,"Red blood cells enzymes","Test","Haematology",4,"Qualifier","TQU","Normal range from",NA,"Normal range to",NA,"Normal range basis",NA,NA,NA,NA,NA,NA,NA,NA,NA
"420",420,"Ascitic fluid examination","Test","Microbiology",4,"Qualifier","TQU","Normal range from",NA,"Normal range to",NA,"Normal range basis",NA,NA,NA,NA,NA,NA,NA,NA,NA
"421",421,"Parietal cell autoantibodes","Test","Serology & Immunology",4,"Qualifier","TQU","Normal range from",NA,"Normal range to",NA,"Normal range basis",NA,NA,NA,NA,NA,NA,NA,NA,NA
"422",422,"Complement tests","Test","Serology & Immunology",7,"Operator","OPR","Value",NA,"Unit of measure","SUM","Qualifier","TQU","Normal range from",NA,"Normal range to",NA,"Normal range basis","POP",NA,NA
"423",423,"Gastrointestinal hormones","Test","Biochemistry (Hormone)",7,"Operator","OPR","Value",NA,"Unit of measure","SUM","Qualifier","TQU","Normal range from",NA,"Normal range to",NA,"Normal range basis","POP",NA,NA
"424",424,"Serum growth hormone","Test","Biochemistry (Hormone)",7,"Operator","OPR","Value",NA,"Unit of measure","SUM","Qualifier","TQU","Normal range from",NA,"Normal range to",NA,"Normal range basis","POP",NA,NA
"425",425,"Sputum cytology","Test","Other Pathology Tests",4,"Qualifier","TQU","Normal range from",NA,"Normal range to",NA,"Normal range basis",NA,NA,NA,NA,NA,NA,NA,NA,NA
"426",426,"Intraocular pressure left","Test","Diagnostic Tests",7,"Operator","OPR","Value",NA,"Unit of measure","SUM","Qualifier","TQU","Normal range from",NA,"Normal range to",NA,"Normal range basis","POP",NA,NA
"427",427,"Intraocular pressure right","Test","Diagnostic Tests",7,"Operator","OPR","Value",NA,"Unit of measure","SUM","Qualifier","TQU","Normal range from",NA,"Normal range to",NA,"Normal range basis","POP",NA,NA
"428",428,"Microscopy culture & sensitivities","Test","Microbiology",4,"Qualifier","TQU","Normal range from",NA,"Normal range to",NA,"Normal range basis",NA,NA,NA,NA,NA,NA,NA,NA,NA
"429",429,"Serum insulin","Test","Biochemistry (Hormone)",7,"Operator","OPR","Value",NA,"Unit of measure","SUM","Qualifier","TQU","Normal range from",NA,"Normal range to",NA,"Normal range basis","POP",NA,NA
"430",430,"Urine dipstick for glucose","Test","Biochemistry (Routine)",4,"Qualifier","TQU","Normal range from",NA,"Normal range to",NA,"Normal range basis",NA,NA,NA,NA,NA,NA,NA,NA,NA
"431",431,"Urine dipstick for protein","Test","Biochemistry (Routine)",4,"Qualifier","TQU","Normal range from",NA,"Normal range to",NA,"Normal range basis",NA,NA,NA,NA,NA,NA,NA,NA,NA
"432",432,"Urine dipstick for ketones","Test","Biochemistry (Routine)",4,"Qualifier","TQU","Normal range from",NA,"Normal range to",NA,"Normal range basis",NA,NA,NA,NA,NA,NA,NA,NA,NA
"433",433,"Urine dipstick for blood","Test","Biochemistry (Routine)",4,"Qualifier","TQU","Normal range from",NA,"Normal range to",NA,"Normal range basis",NA,NA,NA,NA,NA,NA,NA,NA,NA
"434",434,"Urine dipstick for ph","Test","Biochemistry (Routine)",7,"Operator","OPR","Value",NA,"Unit of measure","SUM","Qualifier","TQU","Normal range from",NA,"Normal range to",NA,"Normal range basis","POP",NA,NA
"435",435,"Urine microalbumin","Test","Biochemistry (Routine)",7,"Operator","OPR","Value",NA,"Unit of measure","SUM","Qualifier","TQU","Normal range from",NA,"Normal range to",NA,"Normal range basis","POP",NA,NA
"436",436,"Tumour markers","Test","Serology & Immunology",7,"Operator","OPR","Value",NA,"Unit of measure","SUM","Qualifier","TQU","Normal range from",NA,"Normal range to",NA,"Normal range basis","POP",NA,NA
"437",437,"Enzymes/specific protein","Test","Biochemistry (Other)",7,"Operator","OPR","Value",NA,"Unit of measure","SUM","Qualifier","TQU","Normal range from",NA,"Normal range to",NA,"Normal range basis","POP",NA,NA
"438",438,"Other biochemistry test","Test","Biochemistry (Other)",7,"Operator","OPR","Value",NA,"Unit of measure","SUM","Qualifier","TQU","Normal range from",NA,"Normal range to",NA,"Normal range basis","POP",NA,NA
"439",439,"Serum paracetamol","Test","Biochemistry (Other)",7,"Operator","OPR","Value",NA,"Unit of measure","SUM","Qualifier","TQU","Normal range from",NA,"Normal range to",NA,"Normal range basis","POP",NA,NA
"440",440,"Serum cyclosporin","Test","Biochemistry (Other)",7,"Operator","OPR","Value",NA,"Unit of measure","SUM","Qualifier","TQU","Normal range from",NA,"Normal range to",NA,"Normal range basis","POP",NA,NA
"441",441,"Schilling test - b12 absorption","Test","Biochemistry (Other)",7,"Operator","OPR","Value",NA,"Unit of measure","SUM","Qualifier","TQU","Normal range from",NA,"Normal range to",NA,"Normal range basis","POP",NA,NA
"442",442,"Sickle cell disease screen","Test","Haematology",4,"Qualifier","TQU","Normal range from",NA,"Normal range to",NA,"Normal range basis",NA,NA,NA,NA,NA,NA,NA,NA,NA
"443",443,"Thrombin time","Test","Haematology",7,"Operator","OPR","Value",NA,"Unit of measure","SUM","Qualifier","TQU","Normal range from",NA,"Normal range to",NA,"Normal range basis","POP",NA,NA
"444",444,"Tomography","Test","Diagnostic Imaging",4,"Qualifier","TQU","Normal range from",NA,"Normal range to",NA,"Normal range basis",NA,NA,NA,NA,NA,NA,NA,NA,NA
"445",445,"Serum adrenaline","Test","Biochemistry (Hormone)",7,"Operator","OPR","Value",NA,"Unit of measure","SUM","Qualifier","TQU","Normal range from",NA,"Normal range to",NA,"Normal range basis","POP",NA,NA
"446",446,"Serum noradrenaline","Test","Biochemistry (Hormone)",7,"Operator","OPR","Value",NA,"Unit of measure","SUM","Qualifier","TQU","Normal range from",NA,"Normal range to",NA,"Normal range basis","POP",NA,NA
"447",447,"Anion gap","Test","Biochemistry (Routine)",7,"Operator","OPR","Value",NA,"Unit of measure","SUM","Qualifier","TQU","Normal range from",NA,"Normal range to",NA,"Normal range basis","POP",NA,NA
"448",448,"Sialogram","Test","Diagnostic Imaging",4,"Qualifier","TQU","Normal range from",NA,"Normal range to",NA,"Normal range basis",NA,NA,NA,NA,NA,NA,NA,NA,NA
"449",449,"Serum aldosterone","Test","Biochemistry (Hormone)",7,"Operator","OPR","Value",NA,"Unit of measure","SUM","Qualifier","TQU","Normal range from",NA,"Normal range to",NA,"Normal range basis","POP",NA,NA
"450",450,"Serum lactate","Test","Biochemistry (Other)",7,"Operator","OPR","Value",NA,"Unit of measure","SUM","Qualifier","TQU","Normal range from",NA,"Normal range to",NA,"Normal range basis","POP",NA,NA
"451",451,"Disaccharidase tolerance test","Test","Biochemistry (Other)",4,"Qualifier","TQU","Normal range from",NA,"Normal range to",NA,"Normal range basis",NA,NA,NA,NA,NA,NA,NA,NA,NA
"452",452,"Pleural fluid examination","Test","Microbiology",4,"Qualifier","TQU","Normal range from",NA,"Normal range to",NA,"Normal range basis",NA,NA,NA,NA,NA,NA,NA,NA,NA
"453",453,"Adrenal autoantibodies","Test","Serology & Immunology",4,"Qualifier","TQU","Normal range from",NA,"Normal range to",NA,"Normal range basis",NA,NA,NA,NA,NA,NA,NA,NA,NA
"454",454,"Serum renin","Test","Biochemistry (Hormone)",7,"Operator","OPR","Value",NA,"Unit of measure","SUM","Qualifier","TQU","Normal range from",NA,"Normal range to",NA,"Normal range basis","POP",NA,NA
"455",455,"Carboxyhaemoglobin","Test","Biochemistry (Other)",7,"Operator","OPR","Value",NA,"Unit of measure","SUM","Qualifier","TQU","Normal range from",NA,"Normal range to",NA,"Normal range basis","POP",NA,NA
"456",456,"Serum adrenocorticotrophic hormone","Test","Biochemistry (Hormone)",7,"Operator","OPR","Value",NA,"Unit of measure","SUM","Qualifier","TQU","Normal range from",NA,"Normal range to",NA,"Normal range basis","POP",NA,NA
"457",457,"Abdominal aortogram","Test","Diagnostic Imaging",4,"Qualifier","TQU","Normal range from",NA,"Normal range to",NA,"Normal range basis",NA,NA,NA,NA,NA,NA,NA,NA,NA
"458",458,"Serum amiodarone","Test","Biochemistry (Other)",7,"Operator","OPR","Value",NA,"Unit of measure","SUM","Qualifier","TQU","Normal range from",NA,"Normal range to",NA,"Normal range basis","POP",NA,NA
"459",459,"No Data Entered","Clinical",NA,0,NA,NA,NA,NA,NA,NA,NA,NA,NA,NA,NA,NA,NA,NA,NA,NA
"460",460,"FH Prevention Comment","Clinical","Miscellaneous",0,NA,NA,NA,NA,NA,NA,NA,NA,NA,NA,NA,NA,NA,NA,NA,NA
"461",461,"Repeat Medication Review","Clinical","Miscellaneous",4,"Due date","dd/mm/yyyy","Seen by",NA,"Review date","dd/mm/yyyy","Next review date","dd/mm/yyyy",NA,NA,NA,NA,NA,NA,NA,NA
"462",462,"Tactile Sensation","Clinical","Diagnostic Tests",1,"Qualifier","PRE",NA,NA,NA,NA,NA,NA,NA,NA,NA,NA,NA,NA,NA,NA
"463",463,"Asthma Limiting Activity","Clinical","Asthma",2,"Numeric Result",NA,"Fit Frequency","FIT",NA,NA,NA,NA,NA,NA,NA,NA,NA,NA,NA,NA
"464",464,"Asthma Night time symptoms","Clinical","Asthma",2,"Numeric Result",NA,"Fit Frequency","FIT",NA,NA,NA,NA,NA,NA,NA,NA,NA,NA,NA,NA
"465",465,"Asthma Daytime symptoms","Clinical","Asthma",2,"Numeric Result",NA,"Fit Frequency","FIT",NA,NA,NA,NA,NA,NA,NA,NA,NA,NA,NA,NA
"466",466,"Glomerular Filtration Rate","Test","Biochemistry (Routine)",7,"Operator","OPR","Value",NA,"Unit of measure","SUM","Qualifier","TQU","Normal range from",NA,"Normal range to",NA,"Normal range basis","POP",NA,NA
"467",467,"""Procedures, specimens and samples""","Test","Miscellaneous",4,"Qualifier","TQU","Normal range from",NA,"Normal range to",NA,"Normal range basis",NA,NA,NA,NA,NA,NA,NA,NA,NA
"468",468,"Pulse oximetry","Test","Diagnostic Tests",7,"Operator","OPR","Value",NA,"Unit of measure","SUM","Qualifier","TQU","Normal range from",NA,"Normal range to",NA,"Normal range basis","POP",NA,NA
"469",469,"Albumin creatinine ratio","Test","Biochemistry (Routine)",7,"Operator","OPR","Value",NA,"Unit of measure","SUM","Qualifier","TQU","Normal range from",NA,"Normal range to",NA,"Normal range basis","POP",NA,NA
"470",470,"Diabetic retinopathy screening","Test","Diabetes",4,"Qualifier","TQU","Normal range from",NA,"Normal range to",NA,"Normal range basis",NA,NA,NA,NA,NA,NA,NA,NA,NA
"471",471,"Spirometry","Test","Diagnostic Tests",7,"Operator","OPR","Value",NA,"Unit of measure","SUM","Qualifier","TQU","Normal range from",NA,"Normal range to",NA,"Normal range basis","POP",NA,NA
"472",472,"Immunology screening tests","Test","Serology & Immunology",7,"Operator","OPR","Value",NA,"Unit of measure","SUM","Qualifier","TQU","Normal range from",NA,"Normal range to",NA,"Normal range basis","POP",NA,NA
"473",473,"Urine dipstick for nitrites","Test","Biochemistry (Routine)",7,"Operator","OPR","Value",NA,"Unit of measure","SUM","Qualifier","TQU","Normal range from",NA,"Normal range to",NA,"Normal range basis","POP",NA,NA
"474",474,"Dexa scan/bone mineral density","Test","Diagnostic Imaging",7,"Operator","OPR","Value",NA,"Unit of measure","SUM","Qualifier","TQU","Normal range from",NA,"Normal range to",NA,"Normal range basis","POP",NA,NA
"475",475,"Target blood pressure","Clinical","Examination Findings",2,"Diastolic",NA,"Systolic",NA,NA,NA,NA,NA,NA,NA,NA,NA,NA,NA,NA,NA
"476",476,"Waist circumference","Clinical","Examination Findings",1,"Circumference (cms)",NA,NA,NA,NA,NA,NA,NA,NA,NA,NA,NA,NA,NA,NA,NA
"477",477,"Lung function post steriods","Test","Diagnostic Tests",7,"Operator","OPR","Value",NA,"Unit of measure","SUM","Qualifier","TQU","Normal range from",NA,"Normal range to",NA,"Normal range basis","POP",NA,NA
"478",478,"Hepatitis B Antibody","Test","Serology & Immunology",7,"Operator","OPR","Value",NA,"Unit of measure","SUM","Qualifier","TQU","Normal range from",NA,"Normal range to",NA,"Normal range basis","POP",NA,NA
"479",479,"Palliative Care Plan","Clinical","Elderly",4,"Date of agreement","dd/mm/yyyy","GP to sign","Y_N","GSFS Review date","dd/mm/yyyy","ECS upload date","dd/mm/yyyy",NA,NA,NA,NA,NA,NA,NA,NA
"480",480,"Other Lab Result Information","Test","Other Pathology Tests",7,"Operator","OPR","Value",NA,"Unit of measure","SUM","Qualifier","TQU","Normal range from",NA,"Normal range to",NA,"Normal range basis","POP",NA,NA
"481",481,"Biochemical screening tests","Test","Biochemistry (Other)",4,"Qualifier","TQU","Normal range from",NA,"Normal range to",NA,"Normal range basis",NA,NA,NA,NA,NA,NA,NA,NA,NA
"482",482,"Genetic observations","Test","Miscellaneous",4,"Qualifier","TQU","Normal range from",NA,"Normal range to",NA,"Normal range basis",NA,NA,NA,NA,NA,NA,NA,NA,NA
"483",483,"Haematology screening tests","Test","Haematology",4,"Qualifier","TQU","Normal range from",NA,"Normal range to",NA,"Normal range basis",NA,NA,NA,NA,NA,NA,NA,NA,NA
"484",484,"Urine Leucocytes","Test","Biochemistry (Routine)",7,"Operator","OPR","Value",NA,"Unit of measure","SUM","Qualifier","TQU","Normal range from",NA,"Normal range to",NA,"Normal range basis","POP",NA,NA
"485",485,"Immunisation status","Clinical","Immunisations",1,"Status","IMM",NA,NA,NA,NA,NA,NA,NA,NA,NA,NA,NA,NA,NA,NA
"486",486,"Lung function pre-steroids","Test","Diagnostic Tests",7,"Operator","OPR","Value",NA,"Unit of measure","SUM","Qualifier","TQU","Normal range from",NA,"Normal range to",NA,"Normal range basis","POP",NA,NA
"487",487,"Ante-natal blood tests","Test","Maternity",7,"Operator","OPR","Value",NA,"Unit of measure","SUM","Qualifier","TQU","Normal range from",NA,"Normal range to",NA,"Normal range basis","POP",NA,NA
"488",488,"Weight loss","Clinical","Examination Findings",1,"Weight loss (kg)",NA,NA,NA,NA,NA,NA,NA,NA,NA,NA,NA,NA,NA,NA,NA
"489",489,"Ankle Brachial Pressure Index","Clinical","Examination Findings",1,"Pressure Index Value",NA,NA,NA,NA,NA,NA,NA,NA,NA,NA,NA,NA,NA,NA,NA
"490",490,"Ear swab","Test","Microbiology",4,"Qualifier","TQU","Normal range from",NA,"Normal range to",NA,"Normal range basis",NA,NA,NA,NA,NA,NA,NA,NA,NA
"491",491,"Patient Preference","Clinical","Miscellaneous",0,NA,NA,NA,NA,NA,NA,NA,NA,NA,NA,NA,NA,NA,NA,NA,NA
"492",492,"Palliative Care at Home","Clinical","Elderly",3,"Add. drugs available at home","Y_N","Catheter products at home","Y_N","Moving equipment at home","Y_N",NA,NA,NA,NA,NA,NA,NA,NA,NA,NA
"493",493,"Thyroid disorder screening","Test","Biochemistry (Routine)",4,"Qualifier","TQU","Normal range from",NA,"Normal range to",NA,"Normal range basis",NA,NA,NA,NA,NA,NA,NA,NA,NA
"494",494,"Palliative OOH arrangements","Clinical","Elderly",3,"Date discussed with patient","dd/mm/yyyy","Date discussed with carer","dd/mm/yyyy","Should GP be contacted OO","Y_N",NA,NA,NA,NA,NA,NA,NA,NA,NA,NA
